LAB4/fp_multiplier/sim/transcript
# //  Questa Sim-64
# //  Version 10.7c linux_x86_64 Aug 17 2018
# //
# //  Copyright 1991-2018 Mentor Graphics Corporation
# //  All Rights Reserved.
# //
# //  QuestaSim and its associated documentation contain trade
# //  secrets and commercial or financial information that are the property of
# //  Mentor Graphics Corporation and are privileged, confidential,
# //  and exempt from disclosure under the Freedom of Information Act,
# //  5 U.S.C. Section 552. Furthermore, this information
# //  is prohibited from disclosure under the Trade Secrets Act,
# //  18 U.S.C. Section 1905.
# //
# vsim top "+define+LATENCY=5" "+define+FPMULT" 
# Start time: 14:15:59 on Apr 09,2022
# ** Note: (vsim-3813) Design is being optimized due to module recompilation...
# ** Warning: ../tb/monitor.sv(49): (vopt-2240) Treating stand-alone use of function 'begin_tr' as an implicit VOID cast.
# ** Warning: ../tb/monitor_out.sv(48): (vopt-2240) Treating stand-alone use of function 'begin_tr' as an implicit VOID cast.
# Loading sv_std.std
# Loading mtiUvm.uvm_pkg
# Loading work.top_sv_unit(fast)
# Loading work.top(fast)
# Loading work.dut_if(fast)
# Loading work.dut_if(fast__1)
# Loading work.DUT(fast)
# Loading mtiUvm.questa_uvm_pkg(fast)
# Loading work.dut_if(fast)
# Loading std.standard
# Loading std.textio(body)
# Loading ieee.std_logic_1164(body)
# Loading ieee.std_logic_arith(body)
# Loading work.fpmul(pipeline)#1
# Loading work.fpmul_stage1(struct)#1
# Loading work.unpackfp(unpackfp)#1
# Loading work.fpmul_stage2(struct)#1
# Loading work.dadda(struct)#1
# Loading work.mbe(beh)#1
# Loading work.ks_adder(ks)#1
# Loading ieee.std_logic_unsigned(body)
# Loading work.fpmul_stage3(struct)#1
# Loading work.fpnormalize(fpnormalize)#1
# Loading work.fpround(fpround)#1
# Loading work.fpmul_stage4(struct)#1
# Loading work.packfp(packfp)#1
# ** Warning: (vsim-3839) Variable '/top/out/data', driven via a port connection, is multiply driven. See ../src/DUT.sv(4).
#    Time: 0 ns  Iteration: 0  Instance: /top/sum File: ../src/DUT.sv Line: 18
# ** Warning: (vsim-3764) Stand-alone call to function 'begin_tr' treated as implicit void cast.
#    Time: 0 ns  Iteration: 0  Region: /top_sv_unit::driver File: ../tb/driver.sv Line: 67
# Loading /software/mentor/questa10.7c/questasim/uvm-1.1d/linux_x86_64/uvm_dpi.so
run 200ns
# ----------------------------------------------------------------
# UVM-1.1d
# (C) 2007-2013 Mentor Graphics Corporation
# (C) 2007-2013 Cadence Design Systems, Inc.
# (C) 2006-2013 Synopsys, Inc.
# (C) 2011-2013 Cypress Semiconductor Corp.
# ----------------------------------------------------------------
# 
#   ***********       IMPORTANT RELEASE NOTES         ************
# 
#   You are using a version of the UVM library that has been compiled
#   with `UVM_NO_DEPRECATED undefined.
#   See http://www.eda.org/svdb/view.php?id=3313 for more details.
# 
#   You are using a version of the UVM library that has been compiled
#   with `UVM_OBJECT_MUST_HAVE_CONSTRUCTOR undefined.
#   See http://www.eda.org/svdb/view.php?id=3770 for more details.
# 
#       (Specify +UVM_NO_RELNOTES to turn off this notice)
# 
# UVM_INFO verilog_src/questa_uvm_pkg-1.2/src/questa_uvm_pkg.sv(215) @ 0: reporter [Questa UVM] QUESTA_UVM-1.2.3
# UVM_INFO verilog_src/questa_uvm_pkg-1.2/src/questa_uvm_pkg.sv(216) @ 0: reporter [Questa UVM]  questa_uvm::init(+struct)
# ** Warning: There is an 'U'|'X'|'W'|'Z'|'-' in an arithmetic operand, the result will be 'X'(es).
#    Time: 0 ns  Iteration: 0  Instance: /top/sum/fp_multiplier_test/I3/I11
# ** Warning: There is an 'U'|'X'|'W'|'Z'|'-' in an arithmetic operand, the result will be 'X'(es).
#    Time: 0 ns  Iteration: 0  Instance: /top/sum/fp_multiplier_test/I3/I11
# ** Warning: There is an 'U'|'X'|'W'|'Z'|'-' in an arithmetic operand, the result will be 'X'(es).
#    Time: 0 ns  Iteration: 0  Instance: /top/sum/fp_multiplier_test/I2
# ** Warning: There is an 'U'|'X'|'W'|'Z'|'-' in an arithmetic operand, the result will be 'X'(es).
#    Time: 0 ns  Iteration: 0  Instance: /top/sum/fp_multiplier_test/I2
# ** Warning: There is an 'U'|'X'|'W'|'Z'|'-' in an arithmetic operand, the result will be 'X'(es).
#    Time: 0 ns  Iteration: 0  Instance: /top/sum/fp_multiplier_test/I2
# ** Warning: There is an 'U'|'X'|'W'|'Z'|'-' in an arithmetic operand, the result will be 'X'(es).
#    Time: 0 ns  Iteration: 0  Instance: /top/sum/fp_multiplier_test/I2
# ** Warning: There is an 'U'|'X'|'W'|'Z'|'-' in an arithmetic operand, the result will be 'X'(es).
#    Time: 0 ns  Iteration: 0  Instance: /top/sum/fp_multiplier_test/I2
# UVM_INFO @ 0: reporter [RNTST] Running test simple_test...
# ** Warning: There is an 'U'|'X'|'W'|'Z'|'-' in an arithmetic operand, the result will be 'X'(es).
#    Time: 0 ns  Iteration: 1  Instance: /top/sum/fp_multiplier_test/I2
# ** Warning: There is an 'U'|'X'|'W'|'Z'|'-' in an arithmetic operand, the result will be 'X'(es).
#    Time: 0 ns  Iteration: 1  Instance: /top/sum/fp_multiplier_test/I2
# ** Warning: There is an 'U'|'X'|'W'|'Z'|'-' in an arithmetic operand, the result will be 'X'(es).
#    Time: 0 ns  Iteration: 1  Instance: /top/sum/fp_multiplier_test/I2
# ** Warning: There is an 'U'|'X'|'W'|'Z'|'-' in an arithmetic operand, the result will be 'X'(es).
#    Time: 0 ns  Iteration: 1  Instance: /top/sum/fp_multiplier_test/I2
# ** Warning: There is an 'U'|'X'|'W'|'Z'|'-' in an arithmetic operand, the result will be 'X'(es).
#    Time: 15 ns  Iteration: 2  Instance: /top/sum/fp_multiplier_test/I2
# ** Warning: There is an 'U'|'X'|'W'|'Z'|'-' in an arithmetic operand, the result will be 'X'(es).
#    Time: 15 ns  Iteration: 2  Instance: /top/sum/fp_multiplier_test/I2
# ** Warning: There is an 'U'|'X'|'W'|'Z'|'-' in an arithmetic operand, the result will be 'X'(es).
#    Time: 15 ns  Iteration: 2  Instance: /top/sum/fp_multiplier_test/I2
# ** Warning: There is an 'U'|'X'|'W'|'Z'|'-' in an arithmetic operand, the result will be 'X'(es).
#    Time: 15 ns  Iteration: 2  Instance: /top/sum/fp_multiplier_test/I2
# refmod: input A = 1.282968e-09, input B = 1.166602e-09, output OUT = 1.496713e-18
# refmod: input A = 00110000101100000101010001101010, input B = 00110000101000000101011000101101, output OUT = 00100001110111001110000000111011
# ** Warning: There is an 'U'|'X'|'W'|'Z'|'-' in an arithmetic operand, the result will be 'X'(es).
#    Time: 35 ns  Iteration: 3  Instance: /top/sum/fp_multiplier_test/I3/I11
# ** Warning: There is an 'U'|'X'|'W'|'Z'|'-' in an arithmetic operand, the result will be 'X'(es).
#    Time: 35 ns  Iteration: 3  Instance: /top/sum/fp_multiplier_test/I3/I11
# FP_Mult: input A = 1.282968e-09, input B = 1.166602e-09, output OUT = 0.000000e+00
# FP_Mult: input A = 00110000101100000101010001101010, input B = 00110000101000000101011000101101, output OUT = xxxxxxxxxxxxxxxxxxxxxxxxxxxxxxxx
# UVM_INFO @ 95: uvm_test_top.env_h.comp [Comparator Match] 
# refmod: input A = 1.823956e-09, input B = 1.952986e-09, output OUT = 3.562159e-18
# refmod: input A = 00110000111110101010111010111011, input B = 00110001000001100011010101001011, output OUT = 00100010100000110110101110100101
# FP_Mult: input A = 1.823956e-09, input B = 1.952986e-09, output OUT = 3.562159e-18
# FP_Mult: input A = 00110000111110101010111010111011, input B = 00110001000001100011010101001011, output OUT = 00100010100000110110101110100101
# UVM_INFO @ 165: uvm_test_top.env_h.comp [Comparator Match] 
# refmod: input A = 8.212175e-10, input B = 1.257420e-09, output OUT = 1.032615e-18
# refmod: input A = 00110000011000011011110000001011, input B = 00110000101011001101000110001001, output OUT = 00100001100110000110001100011011
add wave -position insertpoint  \
sim:/top/in/clk \
sim:/top/in/rst \
sim:/top/in/A \
sim:/top/in/B \
sim:/top/in/data \
sim:/top/in/valid \
sim:/top/in/ready
add wave -position insertpoint  \
sim:/top/out/data \
sim:/top/out/valid \
sim:/top/out/ready
add wave -position insertpoint  \
sim:/top/sum/state \
sim:/top/sum/lat
run
# FP_Mult: input A = 8.212175e-10, input B = 1.257420e-09, output OUT = 1.032615e-18
# FP_Mult: input A = 00110000011000011011110000001011, input B = 00110000101011001101000110001001, output OUT = 00100001100110000110001100011011
# UVM_INFO @ 235: uvm_test_top.env_h.comp [Comparator Match] 
# refmod: input A = 8.190957e-10, input B = 1.034966e-09, output OUT = 8.477360e-19
# refmod: input A = 00110000011000010010011010111100, input B = 00110000100011100011111010011111, output OUT = 00100001011110100011010100011111
# FP_Mult: input A = 8.190957e-10, input B = 1.034966e-09, output OUT = 8.477360e-19
# FP_Mult: input A = 00110000011000010010011010111100, input B = 00110000100011100011111010011111, output OUT = 00100001011110100011010100011111
run
# UVM_INFO @ 305: uvm_test_top.env_h.comp [Comparator Match] 
# refmod: input A = 1.003237e-09, input B = 1.567930e-09, output OUT = 1.573006e-18
# refmod: input A = 00110000100010011110001001000101, input B = 00110000110101110111111010100100, output OUT = 00100001111010000010001001111011
# FP_Mult: input A = 1.003237e-09, input B = 1.567930e-09, output OUT = 1.573006e-18
# FP_Mult: input A = 00110000100010011110001001000101, input B = 00110000110101110111111010100100, output OUT = 00100001111010000010001001111011
# UVM_INFO @ 375: uvm_test_top.env_h.comp [Comparator Match] 
# refmod: input A = 1.038395e-09, input B = 8.803360e-10, output OUT = 9.141364e-19
# refmod: input A = 00110000100011101011011101000110, input B = 00110000011100011111110000100100, output OUT = 00100001100001101110011100011001
run -all
# FP_Mult: input A = 1.038395e-09, input B = 8.803360e-10, output OUT = 9.141364e-19
# FP_Mult: input A = 00110000100011101011011101000110, input B = 00110000011100011111110000100100, output OUT = 00100001100001101110011100011001
# UVM_INFO @ 445: uvm_test_top.env_h.comp [Comparator Match] 
# refmod: input A = 8.151850e-10, input B = 9.619933e-10, output OUT = 7.842025e-19
# refmod: input A = 00110000011000000001001110001011, input B = 00110000100001000011011100100001, output OUT = 00100001011001110111010010101010
# FP_Mult: input A = 8.151850e-10, input B = 9.619933e-10, output OUT = 7.842025e-19
# FP_Mult: input A = 00110000011000000001001110001011, input B = 00110000100001000011011100100001, output OUT = 00100001011001110111010010101010
# UVM_INFO @ 515: uvm_test_top.env_h.comp [Comparator Match] 
# refmod: input A = 2.123539e-09, input B = 2.347200e-09, output OUT = 4.984370e-18
# refmod: input A = 00110001000100011110110110110001, input B = 00110001001000010100110001100000, output OUT = 00100010101101111110010000001011
# FP_Mult: input A = 2.123539e-09, input B = 2.347200e-09, output OUT = 4.984370e-18
# FP_Mult: input A = 00110001000100011110110110110001, input B = 00110001001000010100110001100000, output OUT = 00100010101101111110010000001011
# UVM_INFO @ 585: uvm_test_top.env_h.comp [Comparator Match] 
# refmod: input A = 1.929695e-09, input B = 1.087768e-09, output OUT = 2.099060e-18
# refmod: input A = 00110001000001001001101110001100, input B = 00110000100101011000000001101101, output OUT = 00100010000110101110001000011101
# FP_Mult: input A = 1.929695e-09, input B = 1.087768e-09, output OUT = 2.099060e-18
# FP_Mult: input A = 00110001000001001001101110001100, input B = 00110000100101011000000001101101, output OUT = 00100010000110101110001000011101
# UVM_INFO @ 655: uvm_test_top.env_h.comp [Comparator Match] 
# refmod: input A = 1.687908e-09, input B = 1.296962e-09, output OUT = 2.189154e-18
# refmod: input A = 00110000111001111111101111111111, input B = 00110000101100100100000011001111, output OUT = 00100010001000011000011111110010
# FP_Mult: input A = 1.687908e-09, input B = 1.296962e-09, output OUT = 2.189154e-18
# FP_Mult: input A = 00110000111001111111101111111111, input B = 00110000101100100100000011001111, output OUT = 00100010001000011000011111110010
# UVM_INFO @ 725: uvm_test_top.env_h.comp [Comparator Match] 
# refmod: input A = 1.206162e-09, input B = 1.277657e-09, output OUT = 1.541061e-18
# refmod: input A = 00110000101001011100011000001111, input B = 00110000101011111001100110001111, output OUT = 00100001111000110110101110101000
# FP_Mult: input A = 1.206162e-09, input B = 1.277657e-09, output OUT = 1.541061e-18
# FP_Mult: input A = 00110000101001011100011000001111, input B = 00110000101011111001100110001111, output OUT = 00100001111000110110101110101000
# UVM_INFO @ 795: uvm_test_top.env_h.comp [Comparator Match] 
# refmod: input A = 9.155715e-10, input B = 1.923881e-09, output OUT = 1.761450e-18
# refmod: input A = 00110000011110111010101110011101, input B = 00110001000001000011010101000101, output OUT = 00100010000000011111100011011011
# FP_Mult: input A = 9.155715e-10, input B = 1.923881e-09, output OUT = 1.761450e-18
# FP_Mult: input A = 00110000011110111010101110011101, input B = 00110001000001000011010101000101, output OUT = 00100010000000011111100011011011
# UVM_INFO @ 865: uvm_test_top.env_h.comp [Comparator Match] 
# refmod: input A = 7.363578e-10, input B = 1.126133e-09, output OUT = 8.292369e-19
# refmod: input A = 00110000010010100110100010010011, input B = 00110000100110101100011001001001, output OUT = 00100001011101001011111101011110
# FP_Mult: input A = 7.363578e-10, input B = 1.126133e-09, output OUT = 8.292369e-19
# FP_Mult: input A = 00110000010010100110100010010011, input B = 00110000100110101100011001001001, output OUT = 00100001011101001011111101011110
# UVM_INFO @ 935: uvm_test_top.env_h.comp [Comparator Match] 
# refmod: input A = 1.690347e-09, input B = 2.235567e-09, output OUT = 3.778884e-18
# refmod: input A = 00110000111010000101000111001010, input B = 00110001000110011010000010000011, output OUT = 00100010100010110110101010001100
# FP_Mult: input A = 1.690347e-09, input B = 2.235567e-09, output OUT = 3.778884e-18
# FP_Mult: input A = 00110000111010000101000111001010, input B = 00110001000110011010000010000011, output OUT = 00100010100010110110101010001100
# UVM_INFO @ 1005: uvm_test_top.env_h.comp [Comparator Match] 
# refmod: input A = 6.666927e-10, input B = 8.781703e-10, output OUT = 5.854697e-19
# refmod: input A = 00110000001101110100001001010100, input B = 00110000011100010110001110111101, output OUT = 00100001001011001100110011010111
# FP_Mult: input A = 6.666927e-10, input B = 8.781703e-10, output OUT = 5.854697e-19
# FP_Mult: input A = 00110000001101110100001001010100, input B = 00110000011100010110001110111101, output OUT = 00100001001011001100110011010111
# UVM_INFO @ 1075: uvm_test_top.env_h.comp [Comparator Match] 
# refmod: input A = 8.992618e-10, input B = 7.763121e-10, output OUT = 6.981078e-19
# refmod: input A = 00110000011101110010111111101100, input B = 00110000010101010110010000011100, output OUT = 00100001010011100000101110001001
# FP_Mult: input A = 8.992618e-10, input B = 7.763121e-10, output OUT = 6.981078e-19
# FP_Mult: input A = 00110000011101110010111111101100, input B = 00110000010101010110010000011100, output OUT = 00100001010011100000101110001001
# UVM_INFO @ 1145: uvm_test_top.env_h.comp [Comparator Match] 
# refmod: input A = 8.501831e-10, input B = 1.497157e-09, output OUT = 1.272858e-18
# refmod: input A = 00110000011010011011001001010001, input B = 00110000110011011100010010001011, output OUT = 00100001101110111101011100110110
# FP_Mult: input A = 8.501831e-10, input B = 1.497157e-09, output OUT = 1.272858e-18
# FP_Mult: input A = 00110000011010011011001001010001, input B = 00110000110011011100010010001011, output OUT = 00100001101110111101011100110110
# UVM_INFO @ 1215: uvm_test_top.env_h.comp [Comparator Match] 
# refmod: input A = 9.454599e-10, input B = 7.157014e-10, output OUT = 6.766670e-19
# refmod: input A = 00110000100000011111000101101010, input B = 00110000010001001011101100000010, output OUT = 00100001010001111011011110000011
# FP_Mult: input A = 9.454599e-10, input B = 7.157014e-10, output OUT = 6.766670e-19
# FP_Mult: input A = 00110000100000011111000101101010, input B = 00110000010001001011101100000010, output OUT = 00100001010001111011011110000011
# UVM_INFO @ 1285: uvm_test_top.env_h.comp [Comparator Match] 
# refmod: input A = 7.093481e-10, input B = 1.277787e-09, output OUT = 9.063955e-19
# refmod: input A = 00110000010000101111101111101111, input B = 00110000101011111001111000011110, output OUT = 00100001100001011100001010100111
# FP_Mult: input A = 7.093481e-10, input B = 1.277787e-09, output OUT = 9.063955e-19
# FP_Mult: input A = 00110000010000101111101111101111, input B = 00110000101011111001111000011110, output OUT = 00100001100001011100001010100111
# UVM_INFO @ 1355: uvm_test_top.env_h.comp [Comparator Match] 
# refmod: input A = 1.915747e-09, input B = 1.372494e-09, output OUT = 2.629351e-18
# refmod: input A = 00110001000000111010011000101111, input B = 00110000101111001010001001010100, output OUT = 00100010010000100000001100001010
# FP_Mult: input A = 1.915747e-09, input B = 1.372494e-09, output OUT = 2.629351e-18
# FP_Mult: input A = 00110001000000111010011000101111, input B = 00110000101111001010001001010100, output OUT = 00100010010000100000001100001010
# UVM_INFO @ 1425: uvm_test_top.env_h.comp [Comparator Match] 
# refmod: input A = 1.847830e-09, input B = 1.376095e-09, output OUT = 2.542790e-18
# refmod: input A = 00110000111111011111011011000001, input B = 00110000101111010010000100001011, output OUT = 00100010001110111001111111110100
# FP_Mult: input A = 1.847830e-09, input B = 1.376095e-09, output OUT = 2.542790e-18
# FP_Mult: input A = 00110000111111011111011011000001, input B = 00110000101111010010000100001011, output OUT = 00100010001110111001111111110100
# UVM_INFO @ 1495: uvm_test_top.env_h.comp [Comparator Match] 
# refmod: input A = 1.404234e-09, input B = 2.086620e-09, output OUT = 2.930103e-18
# refmod: input A = 00110000110000001111111100010111, input B = 00110001000011110110010000110110, output OUT = 00100010010110000011010000010100
# FP_Mult: input A = 1.404234e-09, input B = 2.086620e-09, output OUT = 2.930103e-18
# FP_Mult: input A = 00110000110000001111111100010111, input B = 00110001000011110110010000110110, output OUT = 00100010010110000011010000010100
# UVM_INFO @ 1565: uvm_test_top.env_h.comp [Comparator Match] 
# refmod: input A = 1.391926e-09, input B = 1.546307e-09, output OUT = 2.152345e-18
# refmod: input A = 00110000101111110100111000001101, input B = 00110000110101001000010111011001, output OUT = 00100010000111101101000010101000
# FP_Mult: input A = 1.391926e-09, input B = 1.546307e-09, output OUT = 2.152345e-18
# FP_Mult: input A = 00110000101111110100111000001101, input B = 00110000110101001000010111011001, output OUT = 00100010000111101101000010101000
# UVM_INFO @ 1635: uvm_test_top.env_h.comp [Comparator Match] 
# refmod: input A = 2.141491e-09, input B = 2.350453e-09, output OUT = 5.033475e-18
# refmod: input A = 00110001000100110010100110000011, input B = 00110001001000011000010110011101, output OUT = 00100010101110011011001111010100
# FP_Mult: input A = 2.141491e-09, input B = 2.350453e-09, output OUT = 5.033475e-18
# FP_Mult: input A = 00110001000100110010100110000011, input B = 00110001001000011000010110011101, output OUT = 00100010101110011011001111010100
# UVM_INFO @ 1705: uvm_test_top.env_h.comp [Comparator Match] 
# refmod: input A = 7.377279e-10, input B = 7.238412e-10, output OUT = 5.339979e-19
# refmod: input A = 00110000010010101100100011111101, input B = 00110000010001101111011111001100, output OUT = 00100001000111011001101110111101
# FP_Mult: input A = 7.377279e-10, input B = 7.238412e-10, output OUT = 5.339979e-19
# FP_Mult: input A = 00110000010010101100100011111101, input B = 00110000010001101111011111001100, output OUT = 00100001000111011001101110111101
# UVM_INFO @ 1775: uvm_test_top.env_h.comp [Comparator Match] 
# refmod: input A = 6.438435e-10, input B = 9.044688e-10, output OUT = 5.823363e-19
# refmod: input A = 00110000001100001111101001110101, input B = 00110000011110001001111001010110, output OUT = 00100001001010111110000000010111
# FP_Mult: input A = 6.438435e-10, input B = 9.044688e-10, output OUT = 5.823363e-19
# FP_Mult: input A = 00110000001100001111101001110101, input B = 00110000011110001001111001010110, output OUT = 00100001001010111110000000010111
# UVM_INFO @ 1845: uvm_test_top.env_h.comp [Comparator Match] 
# refmod: input A = 6.720734e-10, input B = 6.429304e-10, output OUT = 4.320964e-19
# refmod: input A = 00110000001110001011110011110110, input B = 00110000001100001011101000110101, output OUT = 00100000111111110001000010010001
# FP_Mult: input A = 6.720734e-10, input B = 6.429304e-10, output OUT = 4.320964e-19
# FP_Mult: input A = 00110000001110001011110011110110, input B = 00110000001100001011101000110101, output OUT = 00100000111111110001000010010001
# UVM_INFO @ 1915: uvm_test_top.env_h.comp [Comparator Match] 
# refmod: input A = 2.520548e-09, input B = 1.388111e-09, output OUT = 3.498801e-18
# refmod: input A = 00110001001011010011010111110010, input B = 00110000101111101100011111010011, output OUT = 00100010100000010001010100111101
# FP_Mult: input A = 2.520548e-09, input B = 1.388111e-09, output OUT = 3.498801e-18
# FP_Mult: input A = 00110001001011010011010111110010, input B = 00110000101111101100011111010011, output OUT = 00100010100000010001010100111101
# UVM_INFO @ 1985: uvm_test_top.env_h.comp [Comparator Match] 
# refmod: input A = 1.928883e-09, input B = 8.683355e-10, output OUT = 1.674917e-18
# refmod: input A = 00110001000001001000110101000011, input B = 00110000011011101010111110101110, output OUT = 00100001111101110010110010010110
# FP_Mult: input A = 1.928883e-09, input B = 8.683355e-10, output OUT = 1.674917e-18
# FP_Mult: input A = 00110001000001001000110101000011, input B = 00110000011011101010111110101110, output OUT = 00100001111101110010110010010110
# UVM_INFO @ 2055: uvm_test_top.env_h.comp [Comparator Match] 
# refmod: input A = 1.428655e-09, input B = 1.194653e-09, output OUT = 1.706747e-18
# refmod: input A = 00110000110001000101101001010010, input B = 00110000101001000011000100100001, output OUT = 00100001111110111101111100010110
# FP_Mult: input A = 1.428655e-09, input B = 1.194653e-09, output OUT = 1.706747e-18
# FP_Mult: input A = 00110000110001000101101001010010, input B = 00110000101001000011000100100001, output OUT = 00100001111110111101111100010110
# UVM_INFO @ 2125: uvm_test_top.env_h.comp [Comparator Match] 
# refmod: input A = 1.573292e-09, input B = 1.207976e-09, output OUT = 1.900500e-18
# refmod: input A = 00110000110110000011101101001110, input B = 00110000101001100000010111100100, output OUT = 00100010000011000011101101101110
# FP_Mult: input A = 1.573292e-09, input B = 1.207976e-09, output OUT = 1.900500e-18
# FP_Mult: input A = 00110000110110000011101101001110, input B = 00110000101001100000010111100100, output OUT = 00100010000011000011101101101110
# UVM_INFO @ 2195: uvm_test_top.env_h.comp [Comparator Match] 
# refmod: input A = 1.887732e-09, input B = 9.873239e-10, output OUT = 1.863803e-18
# refmod: input A = 00110001000000011011100101010100, input B = 00110000100001111011001001011111, output OUT = 00100010000010011000011000111101
# FP_Mult: input A = 1.887732e-09, input B = 9.873239e-10, output OUT = 1.863803e-18
# FP_Mult: input A = 00110001000000011011100101010100, input B = 00110000100001111011001001011111, output OUT = 00100010000010011000011000111101
# UVM_INFO @ 2265: uvm_test_top.env_h.comp [Comparator Match] 
# refmod: input A = 1.239338e-09, input B = 7.412437e-10, output OUT = 9.186514e-19
# refmod: input A = 00110000101010100101010101010011, input B = 00110000010010111100000001100011, output OUT = 00100001100001111001000110101011
# FP_Mult: input A = 1.239338e-09, input B = 7.412437e-10, output OUT = 9.186514e-19
# FP_Mult: input A = 00110000101010100101010101010011, input B = 00110000010010111100000001100011, output OUT = 00100001100001111001000110101011
# UVM_INFO @ 2335: uvm_test_top.env_h.comp [Comparator Match] 
# refmod: input A = 7.171869e-10, input B = 1.293008e-09, output OUT = 9.273281e-19
# refmod: input A = 00110000010001010010001110001011, input B = 00110000101100011011010110101001, output OUT = 00100001100010001101100101110111
# FP_Mult: input A = 7.171869e-10, input B = 1.293008e-09, output OUT = 9.273281e-19
# FP_Mult: input A = 00110000010001010010001110001011, input B = 00110000101100011011010110101001, output OUT = 00100001100010001101100101110111
# UVM_INFO @ 2405: uvm_test_top.env_h.comp [Comparator Match] 
# refmod: input A = 2.209282e-09, input B = 1.839715e-09, output OUT = 4.064450e-18
# refmod: input A = 00110001000101111101001000011011, input B = 00110000111111001101100100111001, output OUT = 00100010100101011111001110100101
# FP_Mult: input A = 2.209282e-09, input B = 1.839715e-09, output OUT = 4.064450e-18
# FP_Mult: input A = 00110001000101111101001000011011, input B = 00110000111111001101100100111001, output OUT = 00100010100101011111001110100101
# UVM_INFO @ 2475: uvm_test_top.env_h.comp [Comparator Match] 
# refmod: input A = 2.361789e-09, input B = 1.229625e-09, output OUT = 2.904114e-18
# refmod: input A = 00110001001000100100110100001000, input B = 00110000101010001111111110010100, output OUT = 00100010010101100100100100101100
# FP_Mult: input A = 2.361789e-09, input B = 1.229625e-09, output OUT = 2.904114e-18
# FP_Mult: input A = 00110001001000100100110100001000, input B = 00110000101010001111111110010100, output OUT = 00100010010101100100100100101100
# UVM_INFO @ 2545: uvm_test_top.env_h.comp [Comparator Match] 
# refmod: input A = 1.657749e-09, input B = 7.909792e-10, output OUT = 1.311245e-18
# refmod: input A = 00110000111000111101011011011101, input B = 00110000010110010110110000110110, output OUT = 00100001110000011000000101110000
# FP_Mult: input A = 1.657749e-09, input B = 7.909792e-10, output OUT = 1.311245e-18
# FP_Mult: input A = 00110000111000111101011011011101, input B = 00110000010110010110110000110110, output OUT = 00100001110000011000000101110000
# UVM_INFO @ 2615: uvm_test_top.env_h.comp [Comparator Match] 
# refmod: input A = 7.589858e-10, input B = 1.926127e-09, output OUT = 1.461903e-18
# refmod: input A = 00110000010100001010000011100001, input B = 00110001000001000101110011001011, output OUT = 00100001110101111011110100100111
# FP_Mult: input A = 7.589858e-10, input B = 1.926127e-09, output OUT = 1.461903e-18
# FP_Mult: input A = 00110000010100001010000011100001, input B = 00110001000001000101110011001011, output OUT = 00100001110101111011110100100111
# UVM_INFO @ 2685: uvm_test_top.env_h.comp [Comparator Match] 
# refmod: input A = 1.039122e-09, input B = 9.691007e-10, output OUT = 1.007014e-18
# refmod: input A = 00110000100011101101000011011110, input B = 00110000100001010011000100110011, output OUT = 00100001100101001001101111101100
# FP_Mult: input A = 1.039122e-09, input B = 9.691007e-10, output OUT = 1.007014e-18
# FP_Mult: input A = 00110000100011101101000011011110, input B = 00110000100001010011000100110011, output OUT = 00100001100101001001101111101100
# UVM_INFO @ 2755: uvm_test_top.env_h.comp [Comparator Match] 
# refmod: input A = 1.388352e-09, input B = 1.825099e-09, output OUT = 2.533880e-18
# refmod: input A = 00110000101111101101000001001101, input B = 00110000111110101101011011110010, output OUT = 00100010001110101111011110100010
# FP_Mult: input A = 1.388352e-09, input B = 1.825099e-09, output OUT = 2.533880e-18
# FP_Mult: input A = 00110000101111101101000001001101, input B = 00110000111110101101011011110010, output OUT = 00100010001110101111011110100010
# UVM_INFO @ 2825: uvm_test_top.env_h.comp [Comparator Match] 
# refmod: input A = 6.592547e-10, input B = 1.938820e-09, output OUT = 1.278176e-18
# refmod: input A = 00110000001101010011011011101100, input B = 00110001000001010011110000010110, output OUT = 00100001101111001010000000100010
# FP_Mult: input A = 6.592547e-10, input B = 1.938820e-09, output OUT = 1.278176e-18
# FP_Mult: input A = 00110000001101010011011011101100, input B = 00110001000001010011110000010110, output OUT = 00100001101111001010000000100010
# UVM_INFO @ 2895: uvm_test_top.env_h.comp [Comparator Match] 
# refmod: input A = 1.337506e-09, input B = 8.648116e-10, output OUT = 1.156691e-18
# refmod: input A = 00110000101101111101001101010001, input B = 00110000011011011011011110110101, output OUT = 00100001101010101011001010001100
# FP_Mult: input A = 1.337506e-09, input B = 8.648116e-10, output OUT = 1.156691e-18
# FP_Mult: input A = 00110000101101111101001101010001, input B = 00110000011011011011011110110101, output OUT = 00100001101010101011001010001100
# UVM_INFO @ 2965: uvm_test_top.env_h.comp [Comparator Match] 
# refmod: input A = 1.699528e-09, input B = 2.514324e-09, output OUT = 4.273165e-18
# refmod: input A = 00110000111010011001010011010100, input B = 00110001001011001100100001110110, output OUT = 00100010100111011010011011100110
# FP_Mult: input A = 1.699528e-09, input B = 2.514324e-09, output OUT = 4.273165e-18
# FP_Mult: input A = 00110000111010011001010011010100, input B = 00110001001011001100100001110110, output OUT = 00100010100111011010011011100110
# UVM_INFO @ 3035: uvm_test_top.env_h.comp [Comparator Match] 
# refmod: input A = 9.046033e-10, input B = 9.802911e-10, output OUT = 8.867745e-19
# refmod: input A = 00110000011110001010011111001101, input B = 00110000100001101011101011101101, output OUT = 00100001100000101101110101100101
# FP_Mult: input A = 9.046033e-10, input B = 9.802911e-10, output OUT = 8.867745e-19
# FP_Mult: input A = 00110000011110001010011111001101, input B = 00110000100001101011101011101101, output OUT = 00100001100000101101110101100101
# UVM_INFO @ 3105: uvm_test_top.env_h.comp [Comparator Match] 
# refmod: input A = 1.473120e-09, input B = 7.986005e-10, output OUT = 1.176434e-18
# refmod: input A = 00110000110010100111011011001011, input B = 00110000010110111000010010000011, output OUT = 00100001101011011001110001101101
# FP_Mult: input A = 1.473120e-09, input B = 7.986005e-10, output OUT = 1.176434e-18
# FP_Mult: input A = 00110000110010100111011011001011, input B = 00110000010110111000010010000011, output OUT = 00100001101011011001110001101101
# UVM_INFO @ 3175: uvm_test_top.env_h.comp [Comparator Match] 
# refmod: input A = 1.236204e-09, input B = 7.856978e-10, output OUT = 9.712831e-19
# refmod: input A = 00110000101010011110011100010011, input B = 00110000010101111111100010010010, output OUT = 00100001100011110101011000001010
# FP_Mult: input A = 1.236204e-09, input B = 7.856978e-10, output OUT = 9.712831e-19
# FP_Mult: input A = 00110000101010011110011100010011, input B = 00110000010101111111100010010010, output OUT = 00100001100011110101011000001010
# UVM_INFO @ 3245: uvm_test_top.env_h.comp [Comparator Match] 
# refmod: input A = 7.890807e-10, input B = 6.973972e-10, output OUT = 5.503027e-19
# refmod: input A = 00110000010110001110011010011110, input B = 00110000001111111011001011110111, output OUT = 00100001001000100110101110110010
# FP_Mult: input A = 7.890807e-10, input B = 6.973972e-10, output OUT = 5.503027e-19
# FP_Mult: input A = 00110000010110001110011010011110, input B = 00110000001111111011001011110111, output OUT = 00100001001000100110101110110010
# UVM_INFO @ 3315: uvm_test_top.env_h.comp [Comparator Match] 
# refmod: input A = 1.162728e-09, input B = 1.792180e-09, output OUT = 2.083818e-18
# refmod: input A = 00110000100111111100110111011101, input B = 00110000111101100101000010110111, output OUT = 00100010000110011100001000110101
# FP_Mult: input A = 1.162728e-09, input B = 1.792180e-09, output OUT = 2.083818e-18
