LAB4/UVM/logs/FPMULT/run_FPMULT.log
# vsim top "+define+FPMULT" "+define+LATENCY=6" -batch -do "run -all; quit -f" 
# Start time: 20:00:06 on Apr 10,2022
# ** Note: (vsim-3813) Design is being optimized due to module recompilation...
# ** Warning: ../tb/monitor.sv(49): (vopt-2240) Treating stand-alone use of function 'begin_tr' as an implicit VOID cast.
# ** Warning: ../tb/monitor_out.sv(48): (vopt-2240) Treating stand-alone use of function 'begin_tr' as an implicit VOID cast.
# //  Questa Sim-64
# //  Version 10.7c linux_x86_64 Aug 17 2018
# //
# //  Copyright 1991-2018 Mentor Graphics Corporation
# //  All Rights Reserved.
# //
# //  QuestaSim and its associated documentation contain trade
# //  secrets and commercial or financial information that are the property of
# //  Mentor Graphics Corporation and are privileged, confidential,
# //  and exempt from disclosure under the Freedom of Information Act,
# //  5 U.S.C. Section 552. Furthermore, this information
# //  is prohibited from disclosure under the Trade Secrets Act,
# //  18 U.S.C. Section 1905.
# //
# Loading sv_std.std
# Loading mtiUvm.uvm_pkg
# Loading work.top_sv_unit(fast)
# Loading work.top(fast)
# Loading work.dut_if(fast)
# Loading work.dut_if(fast__1)
# Loading work.DUT(fast)
# Loading mtiUvm.questa_uvm_pkg(fast)
# Loading work.dut_if(fast)
# Loading std.standard
# Loading std.textio(body)
# Loading ieee.std_logic_1164(body)
# Loading ieee.std_logic_arith(body)
# Loading work.fpmul(pipeline)#1
# Loading work.fpmul_stage1(struct)#1
# Loading work.unpackfp(unpackfp)#1
# Loading work.fpmul_stage2(struct)#1
# Loading work.dadda(struct)#1
# Loading work.mbe(beh)#1
# Loading work.ks_adder(ks)#1
# Loading work.half_adder(structural)#1
# Loading work.full_adder(behaviour)#1
# Loading ieee.std_logic_unsigned(body)
# Loading work.fpmul_stage3(struct)#1
# Loading work.fpnormalize(fpnormalize)#1
# Loading work.fpround(fpround)#1
# Loading work.fpmul_stage4(struct)#1
# Loading work.packfp(packfp)#1
# ** Warning: (vsim-3764) Stand-alone call to function 'begin_tr' treated as implicit void cast.
#    Time: 0 ns  Iteration: 0  Region: /top_sv_unit::driver File: ../tb/driver.sv Line: 67
# Loading /software/mentor/questa10.7c/questasim/uvm-1.1d/linux_x86_64/uvm_dpi.so
# 
# run -all
# ----------------------------------------------------------------
# UVM-1.1d
# (C) 2007-2013 Mentor Graphics Corporation
# (C) 2007-2013 Cadence Design Systems, Inc.
# (C) 2006-2013 Synopsys, Inc.
# (C) 2011-2013 Cypress Semiconductor Corp.
# ----------------------------------------------------------------
# 
#   ***********       IMPORTANT RELEASE NOTES         ************
# 
#   You are using a version of the UVM library that has been compiled
#   with `UVM_NO_DEPRECATED undefined.
#   See http://www.eda.org/svdb/view.php?id=3313 for more details.
# 
#   You are using a version of the UVM library that has been compiled
#   with `UVM_OBJECT_MUST_HAVE_CONSTRUCTOR undefined.
#   See http://www.eda.org/svdb/view.php?id=3770 for more details.
# 
#       (Specify +UVM_NO_RELNOTES to turn off this notice)
# 
# UVM_INFO verilog_src/questa_uvm_pkg-1.2/src/questa_uvm_pkg.sv(215) @ 0: reporter [Questa UVM] QUESTA_UVM-1.2.3
# UVM_INFO verilog_src/questa_uvm_pkg-1.2/src/questa_uvm_pkg.sv(216) @ 0: reporter [Questa UVM]  questa_uvm::init(+struct)
# ** Warning: There is an 'U'|'X'|'W'|'Z'|'-' in an arithmetic operand, the result will be 'X'(es).
#    Time: 0 ns  Iteration: 0  Instance: /top/fpmult/fp_multiplier_test/I3/I11
# ** Warning: There is an 'U'|'X'|'W'|'Z'|'-' in an arithmetic operand, the result will be 'X'(es).
#    Time: 0 ns  Iteration: 0  Instance: /top/fpmult/fp_multiplier_test/I3/I11
# ** Warning: There is an 'U'|'X'|'W'|'Z'|'-' in an arithmetic operand, the result will be 'X'(es).
#    Time: 0 ns  Iteration: 0  Instance: /top/fpmult/fp_multiplier_test/I2
# ** Warning: There is an 'U'|'X'|'W'|'Z'|'-' in an arithmetic operand, the result will be 'X'(es).
#    Time: 0 ns  Iteration: 0  Instance: /top/fpmult/fp_multiplier_test/I2
# ** Warning: There is an 'U'|'X'|'W'|'Z'|'-' in an arithmetic operand, the result will be 'X'(es).
#    Time: 0 ns  Iteration: 0  Instance: /top/fpmult/fp_multiplier_test/I2
# ** Warning: There is an 'U'|'X'|'W'|'Z'|'-' in an arithmetic operand, the result will be 'X'(es).
#    Time: 0 ns  Iteration: 0  Instance: /top/fpmult/fp_multiplier_test/I2
# ** Warning: There is an 'U'|'X'|'W'|'Z'|'-' in an arithmetic operand, the result will be 'X'(es).
#    Time: 0 ns  Iteration: 0  Instance: /top/fpmult/fp_multiplier_test/I2
# UVM_INFO @ 0: reporter [RNTST] Running test simple_test...
# ** Warning: There is an 'U'|'X'|'W'|'Z'|'-' in an arithmetic operand, the result will be 'X'(es).
#    Time: 0 ns  Iteration: 1  Instance: /top/fpmult/fp_multiplier_test/I2
# ** Warning: There is an 'U'|'X'|'W'|'Z'|'-' in an arithmetic operand, the result will be 'X'(es).
#    Time: 0 ns  Iteration: 1  Instance: /top/fpmult/fp_multiplier_test/I2
# ** Warning: There is an 'U'|'X'|'W'|'Z'|'-' in an arithmetic operand, the result will be 'X'(es).
#    Time: 0 ns  Iteration: 1  Instance: /top/fpmult/fp_multiplier_test/I2
# ** Warning: There is an 'U'|'X'|'W'|'Z'|'-' in an arithmetic operand, the result will be 'X'(es).
#    Time: 0 ns  Iteration: 1  Instance: /top/fpmult/fp_multiplier_test/I2
# ** Warning: There is an 'U'|'X'|'W'|'Z'|'-' in an arithmetic operand, the result will be 'X'(es).
#    Time: 15 ns  Iteration: 2  Instance: /top/fpmult/fp_multiplier_test/I2
# ** Warning: There is an 'U'|'X'|'W'|'Z'|'-' in an arithmetic operand, the result will be 'X'(es).
#    Time: 15 ns  Iteration: 2  Instance: /top/fpmult/fp_multiplier_test/I2
# ** Warning: There is an 'U'|'X'|'W'|'Z'|'-' in an arithmetic operand, the result will be 'X'(es).
#    Time: 15 ns  Iteration: 2  Instance: /top/fpmult/fp_multiplier_test/I2
# ** Warning: There is an 'U'|'X'|'W'|'Z'|'-' in an arithmetic operand, the result will be 'X'(es).
#    Time: 15 ns  Iteration: 2  Instance: /top/fpmult/fp_multiplier_test/I2
# refmod: input A = 2.080327e-12, input B = 2.312545e-32, output OUT = 0.000000e+00
# refmod: input A = 00101100000100100110001111011001, input B = 00001010111100000010010111111101, output OUT = 00000000000000000000000000000000
# ** Warning: There is an 'U'|'X'|'W'|'Z'|'-' in an arithmetic operand, the result will be 'X'(es).
#    Time: 35 ns  Iteration: 3  Instance: /top/fpmult/fp_multiplier_test/I3/I11
# ** Warning: There is an 'U'|'X'|'W'|'Z'|'-' in an arithmetic operand, the result will be 'X'(es).
#    Time: 35 ns  Iteration: 3  Instance: /top/fpmult/fp_multiplier_test/I3/I11
# FP_Mult: input A = 2.080327e-12, input B = 2.312545e-32, output OUT = 0.000000e+00
# FP_Mult: input A = 00101100000100100110001111011001, input B = 00001010111100000010010111111101, output OUT = 00000000000000000000000000000000
# UVM_INFO @ 105: uvm_test_top.env_h.comp [Comparator Match] 
# refmod: input A = 9.521237e-36, input B = 9.925626e-19, output OUT = 0.000000e+00
# refmod: input A = 00000101010010100111111010001011, input B = 00100001100100100111100111110100, output OUT = 00000000000000000000000000000000
# FP_Mult: input A = 9.521237e-36, input B = 9.925626e-19, output OUT = 0.000000e+00
# FP_Mult: input A = 00000101010010100111111010001011, input B = 00100001100100100111100111110100, output OUT = 00000000000000000000000000000000
# UVM_INFO @ 185: uvm_test_top.env_h.comp [Comparator Match] 
# refmod: input A = 2.774684e-29, input B = 7.269329e+21, output OUT = 2.017009e-07
# refmod: input A = 00010000000011001011000101110100, input B = 01100011110001010000100100011010, output OUT = 00110100010110001001001100011110
# FP_Mult: input A = 2.774684e-29, input B = 7.269329e+21, output OUT = 2.017009e-07
# FP_Mult: input A = 00010000000011001011000101110100, input B = 01100011110001010000100100011010, output OUT = 00110100010110001001001100011110
# UVM_INFO @ 265: uvm_test_top.env_h.comp [Comparator Match] 
# refmod: input A = 1.176121e+38, input B = 1.407450e+32, output OUT = inf
# refmod: input A = 01111110101100001111011010001100, input B = 01110100110111100000111001101111, output OUT = 01111111100000000000000000000000
# FP_Mult: input A = 1.176121e+38, input B = 1.407450e+32, output OUT = inf
# FP_Mult: input A = 01111110101100001111011010001100, input B = 01110100110111100000111001101111, output OUT = 01111111100000000000000000000000
# UVM_INFO @ 345: uvm_test_top.env_h.comp [Comparator Match] 
# refmod: input A = 1.880721e-19, input B = 2.247505e+18, output OUT = 4.226930e-01
# refmod: input A = 00100000010111100000100101001111, input B = 01011101111110011000010111101101, output OUT = 00111110110110000110101100110110
# FP_Mult: input A = 1.880721e-19, input B = 2.247505e+18, output OUT = 4.226930e-01
# FP_Mult: input A = 00100000010111100000100101001111, input B = 01011101111110011000010111101101, output OUT = 00111110110110000110101100110110
# UVM_INFO @ 425: uvm_test_top.env_h.comp [Comparator Match] 
# refmod: input A = 1.339290e-33, input B = 9.689835e+01, output OUT = 1.297750e-31
# refmod: input A = 00001000110111101000011100010110, input B = 01000010110000011100101111110100, output OUT = 00001100001010000111010100100001
# FP_Mult: input A = 1.339290e-33, input B = 9.689835e+01, output OUT = 1.297750e-31
# FP_Mult: input A = 00001000110111101000011100010110, input B = 01000010110000011100101111110100, output OUT = 00001100001010000111010100100001
# UVM_INFO @ 505: uvm_test_top.env_h.comp [Comparator Match] 
# refmod: input A = 1.013926e+20, input B = 4.806595e+26, output OUT = inf
# refmod: input A = 01100000101011111110001101011011, input B = 01101011110001101100101111001101, output OUT = 01111111100000000000000000000000
# FP_Mult: input A = 1.013926e+20, input B = 4.806595e+26, output OUT = inf
# FP_Mult: input A = 01100000101011111110001101011011, input B = 01101011110001101100101111001101, output OUT = 01111111100000000000000000000000
# UVM_INFO @ 585: uvm_test_top.env_h.comp [Comparator Match] 
# refmod: input A = 7.294061e-25, input B = 9.875870e+05, output OUT = 7.203519e-19
# refmod: input A = 00010111011000011011110110000001, input B = 01001001011100010001110000110000, output OUT = 00100001010101001001110001000001
# FP_Mult: input A = 7.294061e-25, input B = 9.875870e+05, output OUT = 7.203519e-19
# FP_Mult: input A = 00010111011000011011110110000001, input B = 01001001011100010001110000110000, output OUT = 00100001010101001001110001000001
# UVM_INFO @ 665: uvm_test_top.env_h.comp [Comparator Match] 
# refmod: input A = 1.003122e+24, input B = 1.923620e+09, output OUT = 1.929626e+33
# refmod: input A = 01100111010101000110101101011100, input B = 01001110111001010101000000111101, output OUT = 01110110101111100100011010011101
# FP_Mult: input A = 1.003122e+24, input B = 1.923620e+09, output OUT = 1.929626e+33
# FP_Mult: input A = 01100111010101000110101101011100, input B = 01001110111001010101000000111101, output OUT = 01110110101111100100011010011101
# UVM_INFO @ 745: uvm_test_top.env_h.comp [Comparator Match] 
# refmod: input A = 1.507585e-30, input B = 2.953107e-10, output OUT = 0.000000e+00
# refmod: input A = 00001101111101001001111010100100, input B = 00101111101000100101100101001001, output OUT = 00000000000000000000000000000000
# FP_Mult: input A = 1.507585e-30, input B = 2.953107e-10, output OUT = 0.000000e+00
# FP_Mult: input A = 00001101111101001001111010100100, input B = 00101111101000100101100101001001, output OUT = 00000000000000000000000000000000
# UVM_INFO @ 825: uvm_test_top.env_h.comp [Comparator Match] 
# refmod: input A = 2.585478e+17, input B = 2.309777e+13, output OUT = 5.971878e+30
# refmod: input A = 01011100011001011010001011111001, input B = 01010101101010000000111011110010, output OUT = 01110010100101101100000001011011
# FP_Mult: input A = 2.585478e+17, input B = 2.309777e+13, output OUT = 5.971878e+30
# FP_Mult: input A = 01011100011001011010001011111001, input B = 01010101101010000000111011110010, output OUT = 01110010100101101100000001011011
# UVM_INFO @ 905: uvm_test_top.env_h.comp [Comparator Match] 
# refmod: input A = 6.667702e+06, input B = 2.499465e+18, output OUT = 1.666569e+25
# refmod: input A = 01001010110010110111101101101101, input B = 01011110000010101011111110001000, output OUT = 01101001010111001001000110001100
# FP_Mult: input A = 6.667702e+06, input B = 2.499465e+18, output OUT = 1.666569e+25
# FP_Mult: input A = 01001010110010110111101101101101, input B = 01011110000010101011111110001000, output OUT = 01101001010111001001000110001100
# UVM_INFO @ 985: uvm_test_top.env_h.comp [Comparator Match] 
# refmod: input A = 3.641423e+23, input B = 4.683659e-17, output OUT = 1.705518e+07
# refmod: input A = 01100110100110100011100001100011, input B = 00100100010101111111111011100011, output OUT = 01001011100000100001111011101000
# FP_Mult: input A = 3.641423e+23, input B = 4.683659e-17, output OUT = 1.705518e+07
# FP_Mult: input A = 01100110100110100011100001100011, input B = 00100100010101111111111011100011, output OUT = 01001011100000100001111011101000
# UVM_INFO @ 1065: uvm_test_top.env_h.comp [Comparator Match] 
# refmod: input A = 2.060507e+12, input B = 4.714258e-26, output OUT = 9.713761e-14
# refmod: input A = 01010011111011111101111111100011, input B = 00010101011010010111000001010011, output OUT = 00101001110110101011110000000101
# FP_Mult: input A = 2.060507e+12, input B = 4.714258e-26, output OUT = 9.713761e-14
# FP_Mult: input A = 01010011111011111101111111100011, input B = 00010101011010010111000001010011, output OUT = 00101001110110101011110000000101
# UVM_INFO @ 1145: uvm_test_top.env_h.comp [Comparator Match] 
# refmod: input A = 2.361242e-35, input B = 4.112360e+32, output OUT = 9.710277e-03
# refmod: input A = 00000101111110110001011100100001, input B = 01110101101000100011010000111001, output OUT = 00111100000111110001011111011011
# FP_Mult: input A = 2.361242e-35, input B = 4.112360e+32, output OUT = 9.710277e-03
# FP_Mult: input A = 00000101111110110001011100100001, input B = 01110101101000100011010000111001, output OUT = 00111100000111110001011111011011
# UVM_INFO @ 1225: uvm_test_top.env_h.comp [Comparator Match] 
# refmod: input A = 2.016365e-05, input B = 4.082639e-22, output OUT = 8.232092e-27
# refmod: input A = 00110111101010010010010100011110, input B = 00011011111101101100011111000110, output OUT = 00010100001000110000110110101010
# FP_Mult: input A = 2.016365e-05, input B = 4.082639e-22, output OUT = 8.232092e-27
# FP_Mult: input A = 00110111101010010010010100011110, input B = 00011011111101101100011111000110, output OUT = 00010100001000110000110110101010
# UVM_INFO @ 1305: uvm_test_top.env_h.comp [Comparator Match] 
# refmod: input A = 3.455362e-07, input B = 1.366784e-16, output OUT = 4.722734e-23
# refmod: input A = 00110100101110011000001000100001, input B = 00100101000111011001010001011011, output OUT = 00011010011001000110000010011111
# FP_Mult: input A = 3.455362e-07, input B = 1.366784e-16, output OUT = 4.722734e-23
# FP_Mult: input A = 00110100101110011000001000100001, input B = 00100101000111011001010001011011, output OUT = 00011010011001000110000010011111
# UVM_INFO @ 1385: uvm_test_top.env_h.comp [Comparator Match] 
# refmod: input A = 2.332713e+18, input B = 4.641946e+00, output OUT = 1.082833e+19
# refmod: input A = 01011110000000010111110111011010, input B = 01000000100101001000101011010010, output OUT = 01011111000101100100010111110100
# FP_Mult: input A = 2.332713e+18, input B = 4.641946e+00, output OUT = 1.082833e+19
# FP_Mult: input A = 01011110000000010111110111011010, input B = 01000000100101001000101011010010, output OUT = 01011111000101100100010111110100
# UVM_INFO @ 1465: uvm_test_top.env_h.comp [Comparator Match] 
# refmod: input A = 2.166325e+22, input B = 1.056431e-22, output OUT = 2.288573e+00
# refmod: input A = 01100100100100101100101110111111, input B = 00011010111111110110110111101110, output OUT = 01000000000100100111011111111100
# FP_Mult: input A = 2.166325e+22, input B = 1.056431e-22, output OUT = 2.288573e+00
# FP_Mult: input A = 01100100100100101100101110111111, input B = 00011010111111110110110111101110, output OUT = 01000000000100100111011111111100
# UVM_INFO @ 1545: uvm_test_top.env_h.comp [Comparator Match] 
# refmod: input A = 8.661439e+05, input B = 1.866481e+34, output OUT = inf
# refmod: input A = 01001001010100110111010111111111, input B = 01111000011001100000111111000011, output OUT = 01111111100000000000000000000000
# FP_Mult: input A = 8.661439e+05, input B = 1.866481e+34, output OUT = inf
# FP_Mult: input A = 01001001010100110111010111111111, input B = 01111000011001100000111111000011, output OUT = 01111111100000000000000000000000
# UVM_INFO @ 1625: uvm_test_top.env_h.comp [Comparator Match] 
# refmod: input A = 2.723418e-21, input B = 4.141879e-37, output OUT = 0.000000e+00
# refmod: input A = 00011101010011011100011010010001, input B = 00000011000011001111000011011011, output OUT = 00000000000000000000000000000000
# FP_Mult: input A = 2.723418e-21, input B = 4.141879e-37, output OUT = 0.000000e+00
# FP_Mult: input A = 00011101010011011100011010010001, input B = 00000011000011001111000011011011, output OUT = 00000000000000000000000000000000
# UVM_INFO @ 1705: uvm_test_top.env_h.comp [Comparator Match] 
# refmod: input A = 3.725442e-22, input B = 6.344543e+09, output OUT = 2.363623e-12
# refmod: input A = 00011011111000010011000001101011, input B = 01001111101111010001010100000110, output OUT = 00101100001001100101001100111101
# FP_Mult: input A = 3.725442e-22, input B = 6.344543e+09, output OUT = 2.363623e-12
# FP_Mult: input A = 00011011111000010011000001101011, input B = 01001111101111010001010100000110, output OUT = 00101100001001100101001100111101
# UVM_INFO @ 1785: uvm_test_top.env_h.comp [Comparator Match] 
# refmod: input A = 3.237441e+07, input B = 3.101132e+36, output OUT = inf
# refmod: input A = 01001011111101101111111101000101, input B = 01111100000101010101000001100111, output OUT = 01111111100000000000000000000000
# FP_Mult: input A = 3.237441e+07, input B = 3.101132e+36, output OUT = inf
# FP_Mult: input A = 01001011111101101111111101000101, input B = 01111100000101010101000001100111, output OUT = 01111111100000000000000000000000
# UVM_INFO @ 1865: uvm_test_top.env_h.comp [Comparator Match] 
# refmod: input A = 3.149896e-15, input B = 9.251587e+21, output OUT = 2.914153e+07
# refmod: input A = 00100111011000101111100101010011, input B = 01100011111110101100001111000111, output OUT = 01001011110111100101010100001111
# FP_Mult: input A = 3.149896e-15, input B = 9.251587e+21, output OUT = 2.914153e+07
# FP_Mult: input A = 00100111011000101111100101010011, input B = 01100011111110101100001111000111, output OUT = 01001011110111100101010100001111
# UVM_INFO @ 1945: uvm_test_top.env_h.comp [Comparator Match] 
# refmod: input A = 1.138263e-06, input B = 5.696297e+24, output OUT = 6.483887e+18
# refmod: input A = 00110101100110001100011001101111, input B = 01101000100101101100011110011100, output OUT = 01011110101100111111011011001001
# FP_Mult: input A = 1.138263e-06, input B = 5.696297e+24, output OUT = 6.483887e+18
# FP_Mult: input A = 00110101100110001100011001101111, input B = 01101000100101101100011110011100, output OUT = 01011110101100111111011011001001
# UVM_INFO @ 2025: uvm_test_top.env_h.comp [Comparator Match] 
# refmod: input A = 7.784885e+25, input B = 3.088117e-31, output OUT = 2.404064e-05
# refmod: input A = 01101010100000001100101001000101, input B = 00001100110010000110111000100110, output OUT = 00110111110010011010101011100000
# FP_Mult: input A = 7.784885e+25, input B = 3.088117e-31, output OUT = 2.404064e-05
# FP_Mult: input A = 01101010100000001100101001000101, input B = 00001100110010000110111000100110, output OUT = 00110111110010011010101011100000
# UVM_INFO @ 2105: uvm_test_top.env_h.comp [Comparator Match] 
# refmod: input A = 6.511206e-05, input B = 8.200427e-26, output OUT = 5.339467e-30
# refmod: input A = 00111000100010001000110011000110, input B = 00010101110010110000100001100010, output OUT = 00001110110110001001100000110011
# FP_Mult: input A = 6.511206e-05, input B = 8.200427e-26, output OUT = 5.339467e-30
# FP_Mult: input A = 00111000100010001000110011000110, input B = 00010101110010110000100001100010, output OUT = 00001110110110001001100000110011
# UVM_INFO @ 2185: uvm_test_top.env_h.comp [Comparator Match] 
# refmod: input A = 2.975207e+25, input B = 6.124294e+11, output OUT = 1.822104e+37
# refmod: input A = 01101001110001001110000111110110, input B = 01010011000011101001011110100011, output OUT = 01111101010110110101001111101010
# FP_Mult: input A = 2.975207e+25, input B = 6.124294e+11, output OUT = 1.822104e+37
# FP_Mult: input A = 01101001110001001110000111110110, input B = 01010011000011101001011110100011, output OUT = 01111101010110110101001111101010
# UVM_INFO @ 2265: uvm_test_top.env_h.comp [Comparator Match] 
# refmod: input A = 1.922823e+36, input B = 1.453385e-03, output OUT = 2.794602e+33
# refmod: input A = 01111011101110010010100101000010, input B = 00111010101111100111111101111110, output OUT = 01110111000010011100100011010110
# FP_Mult: input A = 1.922823e+36, input B = 1.453385e-03, output OUT = 2.794602e+33
# FP_Mult: input A = 01111011101110010010100101000010, input B = 00111010101111100111111101111110, output OUT = 01110111000010011100100011010110
# UVM_INFO @ 2345: uvm_test_top.env_h.comp [Comparator Match] 
# refmod: input A = 4.787456e-25, input B = 1.344751e-01, output OUT = 6.437935e-26
# refmod: input A = 00010111000101000010101000100010, input B = 00111110000010011011001111010101, output OUT = 00010101100111110110010101000010
# FP_Mult: input A = 4.787456e-25, input B = 1.344751e-01, output OUT = 6.437935e-26
# FP_Mult: input A = 00010111000101000010101000100010, input B = 00111110000010011011001111010101, output OUT = 00010101100111110110010101000010
# UVM_INFO @ 2425: uvm_test_top.env_h.comp [Comparator Match] 
# refmod: input A = 1.150455e+33, input B = 9.247277e-35, output OUT = 1.063857e-01
# refmod: input A = 01110110011000101110001100011101, input B = 00000110111101011101010110110100, output OUT = 00111101110110011110000011000001
# FP_Mult: input A = 1.150455e+33, input B = 9.247277e-35, output OUT = 1.063857e-01
# FP_Mult: input A = 01110110011000101110001100011101, input B = 00000110111101011101010110110100, output OUT = 00111101110110011110000011000001
# UVM_INFO @ 2505: uvm_test_top.env_h.comp [Comparator Match] 
# refmod: input A = 1.905716e-10, input B = 1.724068e+03, output OUT = 3.285585e-07
# refmod: input A = 00101111010100011000100100100100, input B = 01000100110101111000001000101111, output OUT = 00110100101100000110010010111011
# FP_Mult: input A = 1.905716e-10, input B = 1.724068e+03, output OUT = 3.285585e-07
# FP_Mult: input A = 00101111010100011000100100100100, input B = 01000100110101111000001000101111, output OUT = 00110100101100000110010010111011
# UVM_INFO @ 2585: uvm_test_top.env_h.comp [Comparator Match] 
# refmod: input A = 7.454904e-06, input B = 7.321776e-14, output OUT = 5.458314e-19
# refmod: input A = 00110110111110100010010100100011, input B = 00101001101001001101111100101010, output OUT = 00100001001000010001100111011010
# FP_Mult: input A = 7.454904e-06, input B = 7.321776e-14, output OUT = 5.458314e-19
# FP_Mult: input A = 00110110111110100010010100100011, input B = 00101001101001001101111100101010, output OUT = 00100001001000010001100111011010
# UVM_INFO @ 2665: uvm_test_top.env_h.comp [Comparator Match] 
# refmod: input A = 3.354069e+17, input B = 2.884104e+24, output OUT = inf
# refmod: input A = 01011100100101001111001101011011, input B = 01101000000110001010111011100101, output OUT = 01111111100000000000000000000000
# FP_Mult: input A = 3.354069e+17, input B = 2.884104e+24, output OUT = inf
# FP_Mult: input A = 01011100100101001111001101011011, input B = 01101000000110001010111011100101, output OUT = 01111111100000000000000000000000
# UVM_INFO @ 2745: uvm_test_top.env_h.comp [Comparator Match] 
# refmod: input A = 2.936291e+32, input B = 1.124617e-18, output OUT = 3.302201e+14
# refmod: input A = 01110101011001111010000111101011, input B = 00100001101001011111011011010000, output OUT = 01010111100101100010101010101110
# FP_Mult: input A = 2.936291e+32, input B = 1.124617e-18, output OUT = 3.302201e+14
# FP_Mult: input A = 01110101011001111010000111101011, input B = 00100001101001011111011011010000, output OUT = 01010111100101100010101010101110
# UVM_INFO @ 2825: uvm_test_top.env_h.comp [Comparator Match] 
# refmod: input A = 1.143345e+24, input B = 1.196145e-12, output OUT = 1.367606e+12
# refmod: input A = 01100111011100100001110011011000, input B = 00101011101010000101011110101001, output OUT = 01010011100111110011010111010101
# FP_Mult: input A = 1.143345e+24, input B = 1.196145e-12, output OUT = 1.367606e+12
# FP_Mult: input A = 01100111011100100001110011011000, input B = 00101011101010000101011110101001, output OUT = 01010011100111110011010111010101
# UVM_INFO @ 2905: uvm_test_top.env_h.comp [Comparator Match] 
# refmod: input A = 8.857482e-30, input B = 2.133173e+19, output OUT = 1.889454e-10
# refmod: input A = 00001111001100111010011010101101, input B = 01011111100101000000010011000101, output OUT = 00101111010011111011111101101010
# FP_Mult: input A = 8.857482e-30, input B = 2.133173e+19, output OUT = 1.889454e-10
# FP_Mult: input A = 00001111001100111010011010101101, input B = 01011111100101000000010011000101, output OUT = 00101111010011111011111101101010
# UVM_INFO @ 2985: uvm_test_top.env_h.comp [Comparator Match] 
# refmod: input A = 1.479800e+21, input B = 8.288056e-01, output OUT = 1.226466e+21
# refmod: input A = 01100010101000000111000010110001, input B = 00111111010101000010110010011011, output OUT = 01100010100001001111100101000111
# FP_Mult: input A = 1.479800e+21, input B = 8.288056e-01, output OUT = 1.226466e+21
# FP_Mult: input A = 01100010101000000111000010110001, input B = 00111111010101000010110010011011, output OUT = 01100010100001001111100101000111
# UVM_INFO @ 3065: uvm_test_top.env_h.comp [Comparator Match] 
# refmod: input A = 5.396486e+26, input B = 6.979714e+06, output OUT = 3.766593e+33
# refmod: input A = 01101011110111110011000110000100, input B = 01001010110101010000000100000011, output OUT = 01110111001110011011010100010101
# FP_Mult: input A = 5.396486e+26, input B = 6.979714e+06, output OUT = 3.766593e+33
# FP_Mult: input A = 01101011110111110011000110000100, input B = 01001010110101010000000100000011, output OUT = 01110111001110011011010100010101
# UVM_INFO @ 3145: uvm_test_top.env_h.comp [Comparator Match] 
# refmod: input A = 7.133363e+20, input B = 2.948966e-09, output OUT = 2.103604e+12
# refmod: input A = 01100010000110101010111000011110, input B = 00110001010010101010011011000010, output OUT = 01010011111101001110010001001100
# FP_Mult: input A = 7.133363e+20, input B = 2.948966e-09, output OUT = 2.103604e+12
# FP_Mult: input A = 01100010000110101010111000011110, input B = 00110001010010101010011011000010, output OUT = 01010011111101001110010001001100
# UVM_INFO @ 3225: uvm_test_top.env_h.comp [Comparator Match] 
# refmod: input A = 5.246963e-29, input B = 1.178715e-36, output OUT = 0.000000e+00
# refmod: input A = 00010000100001010000011010111100, input B = 00000011110010001000110001000100, output OUT = 00000000000000000000000000000000
# FP_Mult: input A = 5.246963e-29, input B = 1.178715e-36, output OUT = 0.000000e+00
# FP_Mult: input A = 00010000100001010000011010111100, input B = 00000011110010001000110001000100, output OUT = 00000000000000000000000000000000
# UVM_INFO @ 3305: uvm_test_top.env_h.comp [Comparator Match] 
# refmod: input A = 5.987308e+01, input B = 1.458995e+35, output OUT = 8.735451e+36
# refmod: input A = 01000010011011110111111000001001, input B = 01111001111000001100101100110001, output OUT = 01111100110100100100110001011111
# FP_Mult: input A = 5.987308e+01, input B = 1.458995e+35, output OUT = 8.735451e+36
# FP_Mult: input A = 01000010011011110111111000001001, input B = 01111001111000001100101100110001, output OUT = 01111100110100100100110001011111
# UVM_INFO @ 3385: uvm_test_top.env_h.comp [Comparator Match] 
# refmod: input A = 2.464297e+38, input B = 1.538152e+34, output OUT = inf
# refmod: input A = 01111111001110010110010010100100, input B = 01111000001111011001011110000010, output OUT = 01111111100000000000000000000000
# FP_Mult: input A = 2.464297e+38, input B = 1.538152e+34, output OUT = inf
# FP_Mult: input A = 01111111001110010110010010100100, input B = 01111000001111011001011110000010, output OUT = 01111111100000000000000000000000
# UVM_INFO @ 3465: uvm_test_top.env_h.comp [Comparator Match] 
# refmod: input A = 3.981684e+31, input B = 8.858744e-03, output OUT = 3.527272e+29
# refmod: input A = 01110011111110110100011110010010, input B = 00111100000100010010010001000100, output OUT = 01110000100011100111011100100011
# FP_Mult: input A = 3.981684e+31, input B = 8.858744e-03, output OUT = 3.527272e+29
# FP_Mult: input A = 01110011111110110100011110010010, input B = 00111100000100010010010001000100, output OUT = 01110000100011100111011100100011
# UVM_INFO @ 3545: uvm_test_top.env_h.comp [Comparator Match] 
# refmod: input A = 7.639368e+29, input B = 1.117258e+05, output OUT = 8.535147e+34
# refmod: input A = 01110001000110100100011010011011, input B = 01000111110110100011011011101010, output OUT = 01111001100000111000000100111000
# FP_Mult: input A = 7.639368e+29, input B = 1.117258e+05, output OUT = 8.535147e+34
# FP_Mult: input A = 01110001000110100100011010011011, input B = 01000111110110100011011011101010, output OUT = 01111001100000111000000100111000
# UVM_INFO @ 3625: uvm_test_top.env_h.comp [Comparator Match] 
# refmod: input A = 3.850486e+25, input B = 2.585103e-31, output OUT = 9.953900e-06
# refmod: input A = 01101001111111101100110111000011, input B = 00001100101001111100100001100010, output OUT = 00110111001001101111111110101101
# FP_Mult: input A = 3.850486e+25, input B = 2.585103e-31, output OUT = 9.953900e-06
# FP_Mult: input A = 01101001111111101100110111000011, input B = 00001100101001111100100001100010, output OUT = 00110111001001101111111110101101
# UVM_INFO @ 3705: uvm_test_top.env_h.comp [Comparator Match] 
# refmod: input A = 4.177122e+29, input B = 2.754025e+01, output OUT = 1.150390e+31
# refmod: input A = 01110000101010001011011001101110, input B = 01000001110111000101001001110001, output OUT = 01110011000100010011001100011011
# FP_Mult: input A = 4.177122e+29, input B = 2.754025e+01, output OUT = 1.150390e+31
# FP_Mult: input A = 01110000101010001011011001101110, input B = 01000001110111000101001001110001, output OUT = 01110011000100010011001100011011
# UVM_INFO @ 3785: uvm_test_top.env_h.comp [Comparator Match] 
# refmod: input A = 5.928495e+25, input B = 2.077513e+08, output OUT = 1.231652e+34
# refmod: input A = 01101010010001000010100001001110, input B = 01001101010001100010000010000111, output OUT = 01111000000101111101000000011001
# FP_Mult: input A = 5.928495e+25, input B = 2.077513e+08, output OUT = 1.231652e+34
# FP_Mult: input A = 01101010010001000010100001001110, input B = 01001101010001100010000010000111, output OUT = 01111000000101111101000000011001
# UVM_INFO @ 3865: uvm_test_top.env_h.comp [Comparator Match] 
# refmod: input A = 4.491314e+13, input B = 8.612374e+14, output OUT = 3.868088e+28
# refmod: input A = 01010110001000110110010010100000, input B = 01011000010000111101001010011110, output OUT = 01101110111110011111100000100111
# FP_Mult: input A = 4.491314e+13, input B = 8.612374e+14, output OUT = 3.868088e+28
# FP_Mult: input A = 01010110001000110110010010100000, input B = 01011000010000111101001010011110, output OUT = 01101110111110011111100000100111
