LAB4/part1/sim/transcript
# //  Questa Sim-64
# //  Version 10.7c linux_x86_64 Aug 17 2018
# //
# //  Copyright 1991-2018 Mentor Graphics Corporation
# //  All Rights Reserved.
# //
# //  QuestaSim and its associated documentation contain trade
# //  secrets and commercial or financial information that are the property of
# //  Mentor Graphics Corporation and are privileged, confidential,
# //  and exempt from disclosure under the Freedom of Information Act,
# //  5 U.S.C. Section 552. Furthermore, this information
# //  is prohibited from disclosure under the Trade Secrets Act,
# //  18 U.S.C. Section 1905.
# //
# vsim top 
# Start time: 15:17:33 on Mar 26,2022
# ** Note: (vsim-3813) Design is being optimized due to module recompilation...
# ** Warning: ../tb/monitor.sv(49): (vopt-2240) Treating stand-alone use of function 'begin_tr' as an implicit VOID cast.
# ** Warning: ../tb/monitor_out.sv(48): (vopt-2240) Treating stand-alone use of function 'begin_tr' as an implicit VOID cast.
# Loading sv_std.std
# Loading mtiUvm.uvm_pkg
# Loading work.top_sv_unit(fast)
# Loading work.top(fast)
# Loading work.DUT(fast)
# Loading mtiUvm.questa_uvm_pkg(fast)
# Loading work.dut_if(fast)
# ** Warning: (vsim-3838) Variable '/top/out/data' written by continuous and procedural assignments. 
# One of the assignments is implicit. See ../src/DUT.sv(9).
#    Time: 0 ns  Iteration: 0  Instance: /top/sum File: ../src/DUT.sv Line: 3
# ** Warning: (vsim-3764) Stand-alone call to function 'begin_tr' treated as implicit void cast.
#    Time: 0 ns  Iteration: 0  Region: /top_sv_unit::driver File: ../tb/driver.sv Line: 67
# Loading /software/mentor/questa10.7c/questasim/uvm-1.1d/linux_x86_64/uvm_dpi.so
run 4us
# ----------------------------------------------------------------
# UVM-1.1d
# (C) 2007-2013 Mentor Graphics Corporation
# (C) 2007-2013 Cadence Design Systems, Inc.
# (C) 2006-2013 Synopsys, Inc.
# (C) 2011-2013 Cypress Semiconductor Corp.
# ----------------------------------------------------------------
# 
#   ***********       IMPORTANT RELEASE NOTES         ************
# 
#   You are using a version of the UVM library that has been compiled
#   with `UVM_NO_DEPRECATED undefined.
#   See http://www.eda.org/svdb/view.php?id=3313 for more details.
# 
#   You are using a version of the UVM library that has been compiled
#   with `UVM_OBJECT_MUST_HAVE_CONSTRUCTOR undefined.
#   See http://www.eda.org/svdb/view.php?id=3770 for more details.
# 
#       (Specify +UVM_NO_RELNOTES to turn off this notice)
# 
# UVM_INFO verilog_src/questa_uvm_pkg-1.2/src/questa_uvm_pkg.sv(215) @ 0: reporter [Questa UVM] QUESTA_UVM-1.2.3
# UVM_INFO verilog_src/questa_uvm_pkg-1.2/src/questa_uvm_pkg.sv(216) @ 0: reporter [Questa UVM]  questa_uvm::init(+struct)
# UVM_INFO @ 0: reporter [RNTST] Running test simple_test...
# adder: input A =   603779941611521664, input B =  2084982060945220572, output OUT =  2688762002556742236
# adder: input A = 0000100001100001000011101010100001101110010000101100011010000000, input B = 0001110011101111010110000010001101000001101100111010001111011100, output OUT = 0010010101010000011001101100101110101111111101100110101001011100
# refmod: input A =    603779941611521664, input B =   2084982060945220572, output OUT =   2688762002556742236
# refmod: input A = 0000100001100001000011101010100001101110010000101100011010000000, input B = 0001110011101111010110000010001101000001101100111010001111011100, output OUT = 0010010101010000011001101100101110101111111101100110101001011100
# UVM_INFO @ 45: uvm_test_top.env_h.comp [Comparator Match] 
# adder: input A =   568359768843844412, input B =  4830505800222309061, output OUT =  5398865569066153473
# adder: input A = 0000011111100011001110000011001011001110100011110111101100111100, input B = 0100001100001001011001110110111010100011101101101111101011000101, output OUT = 0100101011101100100111111010000101110010010001100111011000000001
# refmod: input A =    568359768843844412, input B =   4830505800222309061, output OUT =   5398865569066153473
# refmod: input A = 0000011111100011001110000011001011001110100011110111101100111100, input B = 0100001100001001011001110110111010100011101101101111101011000101, output OUT = 0100101011101100100111111010000101110010010001100111011000000001
# UVM_INFO @ 75: uvm_test_top.env_h.comp [Comparator Match] 
# adder: input A =   699290498728433921, input B =  5088089728310250836, output OUT =  5787380227038684757
# adder: input A = 0000100110110100011000010000000011101011100000111001100100000001, input B = 0100011010011100100001101010011001101001001111110000110101010100, output OUT = 0101000001010000111001111010011101010100110000101010011001010101
# refmod: input A =    699290498728433921, input B =   5088089728310250836, output OUT =   5787380227038684757
# refmod: input A = 0000100110110100011000010000000011101011100000111001100100000001, input B = 0100011010011100100001101010011001101001001111110000110101010100, output OUT = 0101000001010000111001111010011101010100110000101010011001010101
# UVM_INFO @ 105: uvm_test_top.env_h.comp [Comparator Match] 
# adder: input A =   901244799441593544, input B =  8957974210633956278, output OUT =  9859219010075549822
# adder: input A = 0000110010000001110111010101111010111110011000100110010011001000, input B = 0111110001010001000111100001010101001011111100100111101110110110, output OUT = 1000100011010010111110110111010000001010010101001110000001111110
# refmod: input A =    901244799441593544, input B =   8957974210633956278, output OUT =  -8587525063634001794
# refmod: input A = 0000110010000001110111010101111010111110011000100110010011001000, input B = 0111110001010001000111100001010101001011111100100111101110110110, output OUT = 1000100011010010111110110111010000001010010101001110000001111110
# UVM_INFO @ 135: uvm_test_top.env_h.comp [Comparator Match] 
# adder: input A =    16104279687890195, input B =    12352617742812773, output OUT =    28456897430702968
# adder: input A = 0000000000111001001101101100000111001110001010010000010100010011, input B = 0000000000101011111000101010001111110000100110110100011001100101, output OUT = 0000000001100101000110010110010110111110110001000100101101111000
# refmod: input A =     16104279687890195, input B =     12352617742812773, output OUT =     28456897430702968
# refmod: input A = 0000000000111001001101101100000111001110001010010000010100010011, input B = 0000000000101011111000101010001111110000100110110100011001100101, output OUT = 0000000001100101000110010110010110111110110001000100101101111000
# UVM_INFO @ 165: uvm_test_top.env_h.comp [Comparator Match] 
# adder: input A =   896129362327323074, input B =  1515458016174981270, output OUT =  2411587378502304344
# adder: input A = 0000110001101111101100001110100000111010010100010100000111000010, input B = 0001010100000111111111010000100101010110001000001100000010010110, output OUT = 0010000101110111101011011111000110010000011100100000001001011000
# refmod: input A =    896129362327323074, input B =   1515458016174981270, output OUT =   2411587378502304344
# refmod: input A = 0000110001101111101100001110100000111010010100010100000111000010, input B = 0001010100000111111111010000100101010110001000001100000010010110, output OUT = 0010000101110111101011011111000110010000011100100000001001011000
# UVM_INFO @ 195: uvm_test_top.env_h.comp [Comparator Match] 
# adder: input A =   768974425335972417, input B =  4090002307732633437, output OUT =  4858976733068605854
# adder: input A = 0000101010101011111100100010101001100111100000101100001001000001, input B = 0011100011000010100110110110110111011010111011100111011101011101, output OUT = 0100001101101110100011011001100001000010011100010011100110011110
# refmod: input A =    768974425335972417, input B =   4090002307732633437, output OUT =   4858976733068605854
# refmod: input A = 0000101010101011111100100010101001100111100000101100001001000001, input B = 0011100011000010100110110110110111011010111011100111011101011101, output OUT = 0100001101101110100011011001100001000010011100010011100110011110
# UVM_INFO @ 225: uvm_test_top.env_h.comp [Comparator Match] 
# adder: input A =  2130944133663365027, input B =  1805162899667278946, output OUT =  3936107033330643973
# adder: input A = 0001110110010010101000100110011000111011001101010001011110100011, input B = 0001100100001101001110100001011111010100011000011101110001100010, output OUT = 0011011010011111110111000111111000001111100101101111010000000101
# refmod: input A =   2130944133663365027, input B =   1805162899667278946, output OUT =   3936107033330643973
# refmod: input A = 0001110110010010101000100110011000111011001101010001011110100011, input B = 0001100100001101001110100001011111010100011000011101110001100010, output OUT = 0011011010011111110111000111111000001111100101101111010000000101
# UVM_INFO @ 255: uvm_test_top.env_h.comp [Comparator Match] 
# adder: input A =   418121373374585333, input B =  1078501088551795935, output OUT =  1496622461926381268
# adder: input A = 0000010111001101011101110010110001111100111111011001100111110101, input B = 0000111011110111100110110000011010100001000000000111110011011111, output OUT = 0001010011000101000100100011001100011101111111100001011011010100
# refmod: input A =    418121373374585333, input B =   1078501088551795935, output OUT =   1496622461926381268
# refmod: input A = 0000010111001101011101110010110001111100111111011001100111110101, input B = 0000111011110111100110110000011010100001000000000111110011011111, output OUT = 0001010011000101000100100011001100011101111111100001011011010100
# UVM_INFO @ 285: uvm_test_top.env_h.comp [Comparator Match] 
# adder: input A =  1856944444543137190, input B =   101303059645979418, output OUT =  1958247504189116608
# adder: input A = 0001100111000101001100010010001001000000101000001111010110100110, input B = 0000000101100111111001101001100010010100110110111101101100011010, output OUT = 0001101100101101000101111011101011010101011111001101000011000000
# refmod: input A =   1856944444543137190, input B =    101303059645979418, output OUT =   1958247504189116608
# refmod: input A = 0001100111000101001100010010001001000000101000001111010110100110, input B = 0000000101100111111001101001100010010100110110111101101100011010, output OUT = 0001101100101101000101111011101011010101011111001101000011000000
# UVM_INFO @ 315: uvm_test_top.env_h.comp [Comparator Match] 
# adder: input A =   814070198629466639, input B =  3962118781052903030, output OUT =  4776188979682369669
# adder: input A = 0000101101001100001010001000100001010011100010101000001000001111, input B = 0011011011111100010001100000101000000110100011111101111001110110, output OUT = 0100001001001000011011101001001001011010000110100110000010000101
# refmod: input A =    814070198629466639, input B =   3962118781052903030, output OUT =   4776188979682369669
# refmod: input A = 0000101101001100001010001000100001010011100010101000001000001111, input B = 0011011011111100010001100000101000000110100011111101111001110110, output OUT = 0100001001001000011011101001001001011010000110100110000010000101
# UVM_INFO @ 345: uvm_test_top.env_h.comp [Comparator Match] 
# adder: input A =   536610028885580946, input B =  4265253656921865538, output OUT =  4801863685807446484
# adder: input A = 0000011101110010011010111111101001101010101000110001110010010010, input B = 0011101100110001001110011001101001001001110000110111110101000010, output OUT = 0100001010100011101001011001010010110100011001101001100111010100
# refmod: input A =    536610028885580946, input B =   4265253656921865538, output OUT =   4801863685807446484
# refmod: input A = 0000011101110010011010111111101001101010101000110001110010010010, input B = 0011101100110001001110011001101001001001110000110111110101000010, output OUT = 0100001010100011101001011001010010110100011001101001100111010100
# UVM_INFO @ 375: uvm_test_top.env_h.comp [Comparator Match] 
# adder: input A =   176379032676592938, input B =  1757072680925965716, output OUT =  1933451713602558654
# adder: input A = 0000001001110010100111111100101110110100100000111110110100101010, input B = 0001100001100010011000000100101100111111001000101010110110010100, output OUT = 0001101011010101000000000001011011110011101001101001101010111110
# refmod: input A =    176379032676592938, input B =   1757072680925965716, output OUT =   1933451713602558654
# refmod: input A = 0000001001110010100111111100101110110100100000111110110100101010, input B = 0001100001100010011000000100101100111111001000101010110110010100, output OUT = 0001101011010101000000000001011011110011101001101001101010111110
# UVM_INFO @ 405: uvm_test_top.env_h.comp [Comparator Match] 
# adder: input A =   780575820757503336, input B =  2219718339489542485, output OUT =  3000294160247045821
# adder: input A = 0000101011010101001010011001001011000100100000101000110101101000, input B = 0001111011001110000001100001000110110110101100011011000101010101, output OUT = 0010100110100011001011111010010001111011001101000011111010111101
# refmod: input A =    780575820757503336, input B =   2219718339489542485, output OUT =   3000294160247045821
# refmod: input A = 0000101011010101001010011001001011000100100000101000110101101000, input B = 0001111011001110000001100001000110110110101100011011000101010101, output OUT = 0010100110100011001011111010010001111011001101000011111010111101
# UVM_INFO @ 435: uvm_test_top.env_h.comp [Comparator Match] 
# adder: input A =  2128992338708618124, input B =  1302813782146315729, output OUT =  3431806120854933853
# adder: input A = 0001110110001011101100110100000010001110010000010101101110001100, input B = 0001001000010100100001100011101101110101010100000111010111010001, output OUT = 0010111110100000001110010111110000000011100100011101000101011101
# refmod: input A =   2128992338708618124, input B =   1302813782146315729, output OUT =   3431806120854933853
# refmod: input A = 0001110110001011101100110100000010001110010000010101101110001100, input B = 0001001000010100100001100011101101110101010100000111010111010001, output OUT = 0010111110100000001110010111110000000011100100011101000101011101
# UVM_INFO @ 465: uvm_test_top.env_h.comp [Comparator Match] 
# adder: input A =   922059076943415597, input B =  2570899202523590319, output OUT =  3492958279467005916
# adder: input A = 0000110011001011110011111101100001011111001000110000100100101101, input B = 0010001110101101101010110011010000010111110000001110111010101111, output OUT = 0011000001111001011110110000110001110110111000111111011111011100
# refmod: input A =    922059076943415597, input B =   2570899202523590319, output OUT =   3492958279467005916
# refmod: input A = 0000110011001011110011111101100001011111001000110000100100101101, input B = 0010001110101101101010110011010000010111110000001110111010101111, output OUT = 0011000001111001011110110000110001110110111000111111011111011100
# UVM_INFO @ 495: uvm_test_top.env_h.comp [Comparator Match] 
# adder: input A =  2022802875607370911, input B =   295640661001487007, output OUT =  2318443536608857918
# adder: input A = 0001110000010010011100000111111110000011001101110100110010011111, input B = 0000010000011010010100111001110101100100001001111100001010011111, output OUT = 0010000000101100110001000001110011100111010111110000111100111110
# refmod: input A =   2022802875607370911, input B =    295640661001487007, output OUT =   2318443536608857918
# refmod: input A = 0001110000010010011100000111111110000011001101110100110010011111, input B = 0000010000011010010100111001110101100100001001111100001010011111, output OUT = 0010000000101100110001000001110011100111010111110000111100111110
# UVM_INFO @ 525: uvm_test_top.env_h.comp [Comparator Match] 
# adder: input A =   844886819783970182, input B =  8045593026783514299, output OUT =  8890479846567484481
# adder: input A = 0000101110111001101001000001011000010000101000100000110110000110, input B = 0110111110100111101100000011101100000000110010101000111010111011, output OUT = 0111101101100001010101000101000100010001011011001001110001000001
# refmod: input A =    844886819783970182, input B =   8045593026783514299, output OUT =   8890479846567484481
# refmod: input A = 0000101110111001101001000001011000010000101000100000110110000110, input B = 0110111110100111101100000011101100000000110010101000111010111011, output OUT = 0111101101100001010101000101000100010001011011001001110001000001
# UVM_INFO @ 555: uvm_test_top.env_h.comp [Comparator Match] 
# adder: input A =   825956201963703165, input B =  7536312432573801267, output OUT =  8362268634537504432
# adder: input A = 0000101101110110011000101100101000100010000100111100101101111101, input B = 0110100010010110010111000011101001110011111010111110001100110011, output OUT = 0111010000001100101111110000010010010101111111111010111010110000
# refmod: input A =    825956201963703165, input B =   7536312432573801267, output OUT =   8362268634537504432
# refmod: input A = 0000101101110110011000101100101000100010000100111100101101111101, input B = 0110100010010110010111000011101001110011111010111110001100110011, output OUT = 0111010000001100101111110000010010010101111111111010111010110000
# UVM_INFO @ 585: uvm_test_top.env_h.comp [Comparator Match] 
# adder: input A =   174085376827644610, input B =  1435863891025857687, output OUT =  1609949267853502297
# adder: input A = 0000001001101010011110011011101001010110011001101101101011000010, input B = 0001001111101101001101101001100111110010011010000000110010010111, output OUT = 0001011001010111101100000101010001001000110011101110011101011001
# refmod: input A =    174085376827644610, input B =   1435863891025857687, output OUT =   1609949267853502297
# refmod: input A = 0000001001101010011110011011101001010110011001101101101011000010, input B = 0001001111101101001101101001100111110010011010000000110010010111, output OUT = 0001011001010111101100000101010001001000110011101110011101011001
# UVM_INFO @ 615: uvm_test_top.env_h.comp [Comparator Match] 
# adder: input A =   754857405681003113, input B =  3632199223964797530, output OUT =  4387056629645800643
# adder: input A = 0000101001111001110010101100111110100001101100000110101001101001, input B = 0011001001101000001010011111001100110001110111110000101001011010, output OUT = 0011110011100001111101001100001011010011100011110111010011000011
# refmod: input A =    754857405681003113, input B =   3632199223964797530, output OUT =   4387056629645800643
# refmod: input A = 0000101001111001110010101100111110100001101100000110101001101001, input B = 0011001001101000001010011111001100110001110111110000101001011010, output OUT = 0011110011100001111101001100001011010011100011110111010011000011
# UVM_INFO @ 645: uvm_test_top.env_h.comp [Comparator Match] 
# adder: input A =   864609696473947705, input B =  2716271435111500793, output OUT =  3580881131585448498
# adder: input A = 0000101111111111101101011111000000100011101100000001111000111001, input B = 0010010110110010001000100111101010010011010111001000101111111001, output OUT = 0011000110110001110110000110101010110111000011001010101000110010
# refmod: input A =    864609696473947705, input B =   2716271435111500793, output OUT =   3580881131585448498
# refmod: input A = 0000101111111111101101011111000000100011101100000001111000111001, input B = 0010010110110010001000100111101010010011010111001000101111111001, output OUT = 0011000110110001110110000110101010110111000011001010101000110010
# UVM_INFO @ 675: uvm_test_top.env_h.comp [Comparator Match] 
# adder: input A =   371990978127363373, input B =  1202472849254258542, output OUT =  1574463827381621915
# adder: input A = 0000010100101001100100111101001011011110111011100111110100101101, input B = 0001000010110000000010101010111101110111110110100001011101101110, output OUT = 0001010111011001100111101000001001010110110010001001010010011011
# refmod: input A =    371990978127363373, input B =   1202472849254258542, output OUT =   1574463827381621915
# refmod: input A = 0000010100101001100100111101001011011110111011100111110100101101, input B = 0001000010110000000010101010111101110111110110100001011101101110, output OUT = 0001010111011001100111101000001001010110110010001001010010011011
# UVM_INFO @ 705: uvm_test_top.env_h.comp [Comparator Match] 
# adder: input A =   390580976986666177, input B =  2011958755095671873, output OUT =  2402539732082338050
# adder: input A = 0000010101101011100111110101010001000101010100001011010011000001, input B = 0001101111101011111010011101001111110100001101101111010001000001, output OUT = 0010000101010111100010010010100000111001100001111010100100000010
# refmod: input A =    390580976986666177, input B =   2011958755095671873, output OUT =   2402539732082338050
# refmod: input A = 0000010101101011100111110101010001000101010100001011010011000001, input B = 0001101111101011111010011101001111110100001101101111010001000001, output OUT = 0010000101010111100010010010100000111001100001111010100100000010
# UVM_INFO @ 735: uvm_test_top.env_h.comp [Comparator Match] 
# adder: input A =   219315757491454588, input B =   480794254982335429, output OUT =   700110012473790017
# adder: input A = 0000001100001011001010101000010011111010111011001000001001111100, input B = 0000011010101100000111111101001111011010010001010100101111000101, output OUT = 0000100110110111010010100101100011010101001100011100111001000001
# refmod: input A =    219315757491454588, input B =    480794254982335429, output OUT =    700110012473790017
# refmod: input A = 0000001100001011001010101000010011111010111011001000001001111100, input B = 0000011010101100000111111101001111011010010001010100101111000101, output OUT = 0000100110110111010010100101100011010101001100011100111001000001
# UVM_INFO @ 765: uvm_test_top.env_h.comp [Comparator Match] 
# adder: input A =  2247305566129717504, input B =  3914555054079886555, output OUT =  6161860620209604059
# adder: input A = 0001111100110000000010001000000101110010111010111000000100000000, input B = 0011011001010011010010110001010011011100001001000100010011011011, output OUT = 0101010110000011010100111001011001001111000011111100010111011011
# refmod: input A =   2247305566129717504, input B =   3914555054079886555, output OUT =   6161860620209604059
# refmod: input A = 0001111100110000000010001000000101110010111010111000000100000000, input B = 0011011001010011010010110001010011011100001001000100010011011011, output OUT = 0101010110000011010100111001011001001111000011111100010111011011
# UVM_INFO @ 795: uvm_test_top.env_h.comp [Comparator Match] 
# adder: input A =  2269537385968594263, input B =  2030761723544790528, output OUT =  4300299109513384791
# adder: input A = 0001111101111111000001000011101001011111001000000110110101010111, input B = 0001110000101110101101110000011100110011010110001110011000000000, output OUT = 0011101110101101101110110100000110010010011110010101001101010111
# refmod: input A =   2269537385968594263, input B =   2030761723544790528, output OUT =   4300299109513384791
# refmod: input A = 0001111101111111000001000011101001011111001000000110110101010111, input B = 0001110000101110101101110000011100110011010110001110011000000000, output OUT = 0011101110101101101110110100000110010010011110010101001101010111
# UVM_INFO @ 825: uvm_test_top.env_h.comp [Comparator Match] 
# adder: input A =   847715005115472197, input B =  7409893864699063492, output OUT =  8257608869814535689
# adder: input A = 0000101111000011101100000100111001000110101011010001100101000101, input B = 0110011011010101001110110011010111101100101110111110110011000100, output OUT = 0111001010011000111010111000010000110011011010010000011000001001
# refmod: input A =    847715005115472197, input B =   7409893864699063492, output OUT =   8257608869814535689
# refmod: input A = 0000101111000011101100000100111001000110101011010001100101000101, input B = 0110011011010101001110110011010111101100101110111110110011000100, output OUT = 0111001010011000111010111000010000110011011010010000011000001001
# UVM_INFO @ 855: uvm_test_top.env_h.comp [Comparator Match] 
# adder: input A =   784856491601772930, input B =  5388675223452682045, output OUT =  6173531715054454975
# adder: input A = 0000101011100100010111101101001000011101100101010100000110000010, input B = 0100101011001000011010111001000010110111110110001000011100111101, output OUT = 0101010110101100110010100110001011010101011011011100100010111111
# refmod: input A =    784856491601772930, input B =   5388675223452682045, output OUT =   6173531715054454975
# refmod: input A = 0000101011100100010111101101001000011101100101010100000110000010, input B = 0100101011001000011010111001000010110111110110001000011100111101, output OUT = 0101010110101100110010100110001011010101011011011100100010111111
# UVM_INFO @ 885: uvm_test_top.env_h.comp [Comparator Match] 
# adder: input A =  2270001096909531267, input B =  1284598291531445708, output OUT =  3554599388440976975
# adder: input A = 0001111110000000101010011111100001111101000010100010100010000011, input B = 0001000111010011110011110101011100001101110011100011010111001100, output OUT = 0011000101010100011110010100111110001010110110000101111001001111
# refmod: input A =   2270001096909531267, input B =   1284598291531445708, output OUT =   3554599388440976975
# refmod: input A = 0001111110000000101010011111100001111101000010100010100010000011, input B = 0001000111010011110011110101011100001101110011100011010111001100, output OUT = 0011000101010100011110010100111110001010110110000101111001001111
# UVM_INFO @ 915: uvm_test_top.env_h.comp [Comparator Match] 
# adder: input A =   386304544450559531, input B =  3252112701000889247, output OUT =  3638417245451448778
# adder: input A = 0000010101011100011011011110111110111011000110000011111000101011, input B = 0010110100100001110100110100010101101000101100011011001110011111, output OUT = 0011001001111110010000010011010100100011110010011111000111001010
# refmod: input A =    386304544450559531, input B =   3252112701000889247, output OUT =   3638417245451448778
# refmod: input A = 0000010101011100011011011110111110111011000110000011111000101011, input B = 0010110100100001110100110100010101101000101100011011001110011111, output OUT = 0011001001111110010000010011010100100011110010011111000111001010
# UVM_INFO @ 945: uvm_test_top.env_h.comp [Comparator Match] 
# adder: input A =   155283175069723077, input B =   183489978655052147, output OUT =   338773153724775224
# adder: input A = 0000001000100111101011010011100110011001101000000010100111000101, input B = 0000001010001011111000110010100111010101100101000001000101110011, output OUT = 0000010010110011100100000110001101101111001101000011101100111000
# refmod: input A =    155283175069723077, input B =    183489978655052147, output OUT =    338773153724775224
# refmod: input A = 0000001000100111101011010011100110011001101000000010100111000101, input B = 0000001010001011111000110010100111010101100101000001000101110011, output OUT = 0000010010110011100100000110001101101111001101000011101100111000
# UVM_INFO @ 975: uvm_test_top.env_h.comp [Comparator Match] 
# adder: input A =   711370777358311647, input B =  6074208219767262253, output OUT =  6785578997125573900
# adder: input A = 0000100111011111010010111111001111111000000010010010000011011111, input B = 0101010001001011111011000011000101111110111111000100110000101101, output OUT = 0101111000101011001110000010010101110111000001010110110100001100
# refmod: input A =    711370777358311647, input B =   6074208219767262253, output OUT =   6785578997125573900
# refmod: input A = 0000100111011111010010111111001111111000000010010010000011011111, input B = 0101010001001011111011000011000101111110111111000100110000101101, output OUT = 0101111000101011001110000010010101110111000001010110110100001100
# UVM_INFO @ 1005: uvm_test_top.env_h.comp [Comparator Match] 
# adder: input A =   754309295270519619, input B =  1940684155440492150, output OUT =  2694993450711011769
# adder: input A = 0000101001110111110110000100111010111011010111111110001101000011, input B = 0001101011101110101100011111010100001010010000100110111001110110, output OUT = 0010010101100110100010100100001111000101101000100101000110111001
# refmod: input A =    754309295270519619, input B =   1940684155440492150, output OUT =   2694993450711011769
# refmod: input A = 0000101001110111110110000100111010111011010111111110001101000011, input B = 0001101011101110101100011111010100001010010000100110111001110110, output OUT = 0010010101100110100010100100001111000101101000100101000110111001
# UVM_INFO @ 1035: uvm_test_top.env_h.comp [Comparator Match] 
# adder: input A =  2037969984761476898, input B =  1538983649920484632, output OUT =  3576953634681961530
# adder: input A = 0001110001001000010100101110011101001100100111011011011100100010, input B = 0001010101011011100100010111100111001000101001010000010100011000, output OUT = 0011000110100011111001000110000100010101010000101011110000111010
# refmod: input A =   2037969984761476898, input B =   1538983649920484632, output OUT =   3576953634681961530
# refmod: input A = 0001110001001000010100101110011101001100100111011011011100100010, input B = 0001010101011011100100010111100111001000101001010000010100011000, output OUT = 0011000110100011111001000110000100010101010000101011110000111010
# UVM_INFO @ 1065: uvm_test_top.env_h.comp [Comparator Match] 
# adder: input A =   630417573541351883, input B =  1108810345569666336, output OUT =  1739227919111018219
# adder: input A = 0000100010111111101100010111000101101011000110001001000111001011, input B = 0000111101100011010010010010001001110010111101010100010100100000, output OUT = 0001100000100010111110101001001111011110000011011101011011101011
# refmod: input A =    630417573541351883, input B =   1108810345569666336, output OUT =   1739227919111018219
# refmod: input A = 0000100010111111101100010111000101101011000110001001000111001011, input B = 0000111101100011010010010010001001110010111101010100010100100000, output OUT = 0001100000100010111110101001001111011110000011011101011011101011
# UVM_INFO @ 1095: uvm_test_top.env_h.comp [Comparator Match] 
# adder: input A =   823351045272399365, input B =   982862978813687290, output OUT =  1806214024086086655
# adder: input A = 0000101101101101001000010110100111010010111010000110111000000101, input B = 0000110110100011110101001010101111111011000100100111010111111010, output OUT = 0001100100010000111101100001010111001101111110101110001111111111
# refmod: input A =    823351045272399365, input B =    982862978813687290, output OUT =   1806214024086086655
# refmod: input A = 0000101101101101001000010110100111010010111010000110111000000101, input B = 0000110110100011110101001010101111111011000100100111010111111010, output OUT = 0001100100010000111101100001010111001101111110101110001111111111
# UVM_INFO @ 1125: uvm_test_top.env_h.comp [Comparator Match] 
# adder: input A =   675736206833888746, input B =  2626486834541537037, output OUT =  3302223041375425783
# adder: input A = 0000100101100000101100100111111111111010001101000010110111101010, input B = 0010010001110011001001111101110000111100000101101010011100001101, output OUT = 0010110111010011110110100101110000110110010010101101010011110111
# refmod: input A =    675736206833888746, input B =   2626486834541537037, output OUT =   3302223041375425783
# refmod: input A = 0000100101100000101100100111111111111010001101000010110111101010, input B = 0010010001110011001001111101110000111100000101101010011100001101, output OUT = 0010110111010011110110100101110000110110010010101101010011110111
# UVM_INFO @ 1155: uvm_test_top.env_h.comp [Comparator Match] 
# adder: input A =   679473383292131726, input B =  5970016208755301310, output OUT =  6649489592047433036
# adder: input A = 0000100101101101111110010111000100101101011101011101100110001110, input B = 0101001011011001110000100001110010000010001011110001101110111110, output OUT = 0101110001000111101110111000110110101111101001001111010101001100
# refmod: input A =    679473383292131726, input B =   5970016208755301310, output OUT =   6649489592047433036
# refmod: input A = 0000100101101101111110010111000100101101011101011101100110001110, input B = 0101001011011001110000100001110010000010001011110001101110111110, output OUT = 0101110001000111101110111000110110101111101001001111010101001100
# UVM_INFO @ 1185: uvm_test_top.env_h.comp [Comparator Match] 
# adder: input A =   891101961614412312, input B =  7362994769145752881, output OUT =  8254096730760165193
# adder: input A = 0000110001011101110101001000001101001000101011100100101000011000, input B = 0110011000101110100111001011101101010001111111011110110100110001, output OUT = 0111001010001100011100010011111010011010101011000011011101001001
# refmod: input A =    891101961614412312, input B =   7362994769145752881, output OUT =   8254096730760165193
# refmod: input A = 0000110001011101110101001000001101001000101011100100101000011000, input B = 0110011000101110100111001011101101010001111111011110110100110001, output OUT = 0111001010001100011100010011111010011010101011000011011101001001
# UVM_INFO @ 1215: uvm_test_top.env_h.comp [Comparator Match] 
# adder: input A =   130653536104052433, input B =   184844758371679087, output OUT =   315498294475731520
# adder: input A = 0000000111010000001011001011001011101000001000010111011011010001, input B = 0000001010010000101100110101010000010001010101100011101101101111, output OUT = 0000010001100000111000000000011011111001011101111011001001000000
# refmod: input A =    130653536104052433, input B =    184844758371679087, output OUT =    315498294475731520
# refmod: input A = 0000000111010000001011001011001011101000001000010111011011010001, input B = 0000001010010000101100110101010000010001010101100011101101101111, output OUT = 0000010001100000111000000000011011111001011101111011001001000000
# UVM_INFO @ 1245: uvm_test_top.env_h.comp [Comparator Match] 
# adder: input A =   336930112228445496, input B =  1979377618322193945, output OUT =  2316307730550639441
# adder: input A = 0000010010101101000001000010011011100101100000100100110100111000, input B = 0001101101111000001010010111010011101000011100111111111000011001, output OUT = 0010000000100101001011011001101111001101111101100100101101010001
# refmod: input A =    336930112228445496, input B =   1979377618322193945, output OUT =   2316307730550639441
# refmod: input A = 0000010010101101000001000010011011100101100000100100110100111000, input B = 0001101101111000001010010111010011101000011100111111111000011001, output OUT = 0010000000100101001011011001101111001101111101100100101101010001
# UVM_INFO @ 1275: uvm_test_top.env_h.comp [Comparator Match] 
# adder: input A =   787933162834173293, input B =  2032289631676251445, output OUT =  2820222794510424738
# adder: input A = 0000101011101111010011010000100101110101011110110001110101101101, input B = 0001110000110100001001001010011100001000110001011011110100110101, output OUT = 0010011100100011011100011011000001111110010000001101101010100010
# refmod: input A =    787933162834173293, input B =   2032289631676251445, output OUT =   2820222794510424738
# refmod: input A = 0000101011101111010011010000100101110101011110110001110101101101, input B = 0001110000110100001001001010011100001000110001011011110100110101, output OUT = 0010011100100011011100011011000001111110010000001101101010100010
# UVM_INFO @ 1305: uvm_test_top.env_h.comp [Comparator Match] 
# adder: input A =   210240741605328210, input B =  1013612322030937765, output OUT =  1223853063636265975
# adder: input A = 0000001011101010111011001101011100110000101100110100010101010010, input B = 0000111000010001000100110000100101011010100111001110011010100101, output OUT = 0001000011111011111111111110000010001011010100000010101111110111
# refmod: input A =    210240741605328210, input B =   1013612322030937765, output OUT =   1223853063636265975
# refmod: input A = 0000001011101010111011001101011100110000101100110100010101010010, input B = 0000111000010001000100110000100101011010100111001110011010100101, output OUT = 0001000011111011111111111110000010001011010100000010101111110111
# UVM_INFO @ 1335: uvm_test_top.env_h.comp [Comparator Match] 
# adder: input A =   776284453609347514, input B =  4514963963467013017, output OUT =  5291248417076360531
# adder: input A = 0000101011000101111010101001100011111110000010110001100110111010, input B = 0011111010101000010111111100110110110000001001000001101110011001, output OUT = 0100100101101110010010100110011010101110001011110011010101010011
# refmod: input A =    776284453609347514, input B =   4514963963467013017, output OUT =   5291248417076360531
# refmod: input A = 0000101011000101111010101001100011111110000010110001100110111010, input B = 0011111010101000010111111100110110110000001001000001101110011001, output OUT = 0100100101101110010010100110011010101110001011110011010101010011
# UVM_INFO @ 1365: uvm_test_top.env_h.comp [Comparator Match] 
# adder: input A =  2296339412883826016, input B =  2800580140096670547, output OUT =  5096919552980496563
# adder: input A = 0001111111011110001111001000011110001100101010110110010101100000, input B = 0010011011011101101010001100110010011111011110011100101101010011, output OUT = 0100011010111011111001010101010000101100001001010011000010110011
# refmod: input A =   2296339412883826016, input B =   2800580140096670547, output OUT =   5096919552980496563
# refmod: input A = 0001111111011110001111001000011110001100101010110110010101100000, input B = 0010011011011101101010001100110010011111011110011100101101010011, output OUT = 0100011010111011111001010101010000101100001001010011000010110011
# UVM_INFO @ 1395: uvm_test_top.env_h.comp [Comparator Match] 
# adder: input A =  2117529720758866095, input B =  2315977893877103610, output OUT =  4433507614635969705
