LAB4/UVM/logs/DADDA/run_DADDA.log
# vsim top "+define+DADDA" "+define+MISCOMPARE" -batch -do "run -all; quit -f" 
# Start time: 19:53:03 on Apr 10,2022
# ** Note: (vsim-3813) Design is being optimized due to module recompilation...
# ** Warning: ../tb/monitor.sv(49): (vopt-2240) Treating stand-alone use of function 'begin_tr' as an implicit VOID cast.
# ** Warning: ../tb/monitor_out.sv(48): (vopt-2240) Treating stand-alone use of function 'begin_tr' as an implicit VOID cast.
# //  Questa Sim-64
# //  Version 10.7c linux_x86_64 Aug 17 2018
# //
# //  Copyright 1991-2018 Mentor Graphics Corporation
# //  All Rights Reserved.
# //
# //  QuestaSim and its associated documentation contain trade
# //  secrets and commercial or financial information that are the property of
# //  Mentor Graphics Corporation and are privileged, confidential,
# //  and exempt from disclosure under the Freedom of Information Act,
# //  5 U.S.C. Section 552. Furthermore, this information
# //  is prohibited from disclosure under the Trade Secrets Act,
# //  18 U.S.C. Section 1905.
# //
# Loading sv_std.std
# Loading mtiUvm.uvm_pkg
# Loading work.top_sv_unit(fast)
# Loading work.top(fast)
# Loading work.dut_if(fast)
# Loading work.DUT(fast)
# Loading mtiUvm.questa_uvm_pkg(fast)
# Loading work.dut_if(fast)
# Loading std.standard
# Loading std.textio(body)
# Loading ieee.std_logic_1164(body)
# Loading ieee.std_logic_arith(body)
# Loading work.dadda(struct)#1
# Loading work.mbe(beh)#1
# Loading work.ks_adder(ks)#1
# Loading work.half_adder(structural)#1
# Loading work.full_adder(behaviour)#1
# ** Warning: (vsim-3764) Stand-alone call to function 'begin_tr' treated as implicit void cast.
#    Time: 0 ns  Iteration: 0  Region: /top_sv_unit::driver File: ../tb/driver.sv Line: 67
# Loading /software/mentor/questa10.7c/questasim/uvm-1.1d/linux_x86_64/uvm_dpi.so
# 
# run -all
# ----------------------------------------------------------------
# UVM-1.1d
# (C) 2007-2013 Mentor Graphics Corporation
# (C) 2007-2013 Cadence Design Systems, Inc.
# (C) 2006-2013 Synopsys, Inc.
# (C) 2011-2013 Cypress Semiconductor Corp.
# ----------------------------------------------------------------
# 
#   ***********       IMPORTANT RELEASE NOTES         ************
# 
#   You are using a version of the UVM library that has been compiled
#   with `UVM_NO_DEPRECATED undefined.
#   See http://www.eda.org/svdb/view.php?id=3313 for more details.
# 
#   You are using a version of the UVM library that has been compiled
#   with `UVM_OBJECT_MUST_HAVE_CONSTRUCTOR undefined.
#   See http://www.eda.org/svdb/view.php?id=3770 for more details.
# 
#       (Specify +UVM_NO_RELNOTES to turn off this notice)
# 
# UVM_INFO verilog_src/questa_uvm_pkg-1.2/src/questa_uvm_pkg.sv(215) @ 0: reporter [Questa UVM] QUESTA_UVM-1.2.3
# UVM_INFO verilog_src/questa_uvm_pkg-1.2/src/questa_uvm_pkg.sv(216) @ 0: reporter [Questa UVM]  questa_uvm::init(+struct)
# UVM_INFO @ 0: reporter [RNTST] Running test simple_test...
# Dadda: input A =  731014105, input B =  175121917, output OUT =   128016591421639285
# Dadda: input A = 00101011100100100110001111011001, input B = 00001010011100000010010111111101, output OUT = 0000000111000110110011100110100101100001000010110000101001110101
# refmod: input A =   731014105, input B =   175121917, output OUT =             555892188
# refmod: input A = 00101011100100100110001111011001, input B = 00001010011100000010010111111101, output OUT = 0000000000000000000000000000000000100001001000100011110111011100
# UVM_INFO @ 45: reporter [MISCMP] Miscompare for exp.data: lhs = 'h21223ddc : rhs = 'h1c6ce69610b0a75
# UVM_INFO @ 45: reporter [MISCMP] 1 Miscompare(s) for object tr@825 vs. exp@617
# UVM_WARNING @ 45: uvm_test_top.env_h.comp [Comparator Mismatch] 
# Dadda: input A =   80379531, input B =  554858996, output OUT =    44599305869610876
# Dadda: input A = 00000100110010100111111010001011, input B = 00100001000100100111100111110100, output OUT = 0000000010011110011100101101010100010111100101100100111101111100
# refmod: input A =    80379531, input B =   554858996, output OUT =            -474479465
# refmod: input A = 00000100110010100111111010001011, input B = 00100001000100100111100111110100, output OUT = 1111111111111111111111111111111111100011101110000000010010010111
# UVM_INFO @ 75: reporter [MISCMP] Miscompare for exp.data: lhs = 'hffffffffe3b80497 : rhs = 'h9e72d517964f7c
# UVM_INFO @ 75: reporter [MISCMP] 1 Miscompare(s) for object tr@825 vs. exp@617
# UVM_WARNING @ 75: uvm_test_top.env_h.comp [Comparator Mismatch] 
# Dadda: input A =  260878708, input B = 1665468698, output OUT =   434485322148682184
# Dadda: input A = 00001111100011001011000101110100, input B = 01100011010001010000100100011010, output OUT = 0000011000000111100110100001100100110110110010110001100111001000
# refmod: input A =   260878708, input B =  1665468698, output OUT =           -1404589990
# refmod: input A = 00001111100011001011000101110100, input B = 01100011010001010000100100011010, output OUT = 1111111111111111111111111111111110101100010001111010100001011010
# UVM_INFO @ 105: reporter [MISCMP] Miscompare for exp.data: lhs = 'hffffffffac47a85a : rhs = 'h6079a1936cb19c8
# UVM_INFO @ 105: reporter [MISCMP] 1 Miscompare(s) for object tr@825 vs. exp@617
# UVM_WARNING @ 105: uvm_test_top.env_h.comp [Comparator Mismatch] 
# Dadda: input A = 2117138060, input B = 1952321135, output OUT =  4133333380250898100
# Dadda: input A = 01111110001100001111011010001100, input B = 01110100010111100000111001101111, output OUT = 0011100101011100100011001100111101011100000111101000111010110100
# refmod: input A =  2117138060, input B =  1952321135, output OUT =             164816925
# refmod: input A = 01111110001100001111011010001100, input B = 01110100010111100000111001101111, output OUT = 0000000000000000000000000000000000001001110100101110100000011101
# UVM_INFO @ 135: reporter [MISCMP] Miscompare for exp.data: lhs = 'h9d2e81d : rhs = 'h395c8ccf5c1e8eb4
# UVM_INFO @ 135: reporter [MISCMP] 1 Miscompare(s) for object tr@825 vs. exp@617
# UVM_WARNING @ 135: uvm_test_top.env_h.comp [Comparator Mismatch] 
# Dadda: input A =  534645071, input B = 1568245229, output OUT =   838454581804116259
# Dadda: input A = 00011111110111100000100101001111, input B = 01011101011110011000010111101101, output OUT = 0000101110100010110010011111111111110100101110111010100100100011
# refmod: input A =   534645071, input B =  1568245229, output OUT =           -1033600158
# refmod: input A = 00011111110111100000100101001111, input B = 01011101011110011000010111101101, output OUT = 1111111111111111111111111111111111000010011001001000001101100010
# UVM_INFO @ 165: reporter [MISCMP] Miscompare for exp.data: lhs = 'hffffffffc2648362 : rhs = 'hba2c9fff4bba923
# UVM_INFO @ 165: reporter [MISCMP] 1 Miscompare(s) for object tr@825 vs. exp@617
# UVM_WARNING @ 165: uvm_test_top.env_h.comp [Comparator Mismatch] 
# Dadda: input A =  140412694, input B = 1111608308, output OUT =   156083917199061752
# Dadda: input A = 00001000010111101000011100010110, input B = 01000010010000011100101111110100, output OUT = 0000001000101010100001010111111011100111110011010011001011111000
# refmod: input A =   140412694, input B =  1111608308, output OUT =            -971195614
# refmod: input A = 00001000010111101000011100010110, input B = 01000010010000011100101111110100, output OUT = 1111111111111111111111111111111111000110000111001011101100100010
# UVM_INFO @ 195: reporter [MISCMP] Miscompare for exp.data: lhs = 'hffffffffc61cbb22 : rhs = 'h22a857ee7cd32f8
# UVM_INFO @ 195: reporter [MISCMP] 1 Miscompare(s) for object tr@825 vs. exp@617
# UVM_WARNING @ 195: uvm_test_top.env_h.comp [Comparator Mismatch] 
# Dadda: input A = 1613751131, input B = 1799801805, output OUT =  2904432198394591455
# Dadda: input A = 01100000001011111110001101011011, input B = 01101011010001101100101111001101, output OUT = 0010100001001110100111011011001000110011100001000011100011011111
# refmod: input A =  1613751131, input B =  1799801805, output OUT =            -186050674
# refmod: input A = 01100000001011111110001101011011, input B = 01101011010001101100101111001101, output OUT = 1111111111111111111111111111111111110100111010010001011110001110
# UVM_INFO @ 225: reporter [MISCMP] Miscompare for exp.data: lhs = 'hfffffffff4e9178e : rhs = 'h284e9db2338438df
# UVM_INFO @ 225: reporter [MISCMP] 1 Miscompare(s) for object tr@825 vs. exp@617
# UVM_WARNING @ 225: uvm_test_top.env_h.comp [Comparator Mismatch] 
# Dadda: input A =  383892865, input B = 1223760944, output OUT =   469793094867264560
# Dadda: input A = 00010110111000011011110110000001, input B = 01001000111100010001110000110000, output OUT = 0000011010000101000010100101010010101001011111101010010000110000
# refmod: input A =   383892865, input B =  1223760944, output OUT =            -839868079
# refmod: input A = 00010110111000011011110110000001, input B = 01001000111100010001110000110000, output OUT = 1111111111111111111111111111111111001101111100001010000101010001
# UVM_INFO @ 255: reporter [MISCMP] Miscompare for exp.data: lhs = 'hffffffffcdf0a151 : rhs = 'h6850a54a97ea430
# UVM_INFO @ 255: reporter [MISCMP] 1 Miscompare(s) for object tr@825 vs. exp@617
# UVM_WARNING @ 255: uvm_test_top.env_h.comp [Comparator Mismatch] 
# Dadda: input A = 1725197148, input B = 1315262525, output OUT =  2269087157001278700
# Dadda: input A = 01100110110101000110101101011100, input B = 01001110011001010101000000111101, output OUT = 0001111101111101011010101011111101000101011101100101010011101100
# refmod: input A =  1725197148, input B =  1315262525, output OUT =             409934623
# refmod: input A = 01100110110101000110101101011100, input B = 01001110011001010101000000111101, output OUT = 0000000000000000000000000000000000011000011011110001101100011111
# UVM_INFO @ 285: reporter [MISCMP] Miscompare for exp.data: lhs = 'h186f1b1f : rhs = 'h1f7d6abf457654ec
# UVM_INFO @ 285: reporter [MISCMP] 1 Miscompare(s) for object tr@825 vs. exp@617
# UVM_WARNING @ 285: uvm_test_top.env_h.comp [Comparator Mismatch] 
# Dadda: input A =  225746596, input B =  790780233, output OUT =   178515945783836868
# Dadda: input A = 00001101011101001001111010100100, input B = 00101111001000100101100101001001, output OUT = 0000001001111010001101110100111010001111001100000100000011000100
# refmod: input A =   225746596, input B =   790780233, output OUT =            -565033637
# refmod: input A = 00001101011101001001111010100100, input B = 00101111001000100101100101001001, output OUT = 1111111111111111111111111111111111011110010100100100010101011011
# UVM_INFO @ 315: reporter [MISCMP] Miscompare for exp.data: lhs = 'hffffffffde52455b : rhs = 'h27a374e8f3040c4
# UVM_INFO @ 315: reporter [MISCMP] 1 Miscompare(s) for object tr@825 vs. exp@617
# UVM_WARNING @ 315: uvm_test_top.env_h.comp [Comparator Mismatch] 
# Dadda: input A = 1541776121, input B = 1428688626, output OUT =  2202718007911099746
# Dadda: input A = 01011011111001011010001011111001, input B = 01010101001010000000111011110010, output OUT = 0001111010010001101000000101101110010001111001011010110101100010
# refmod: input A =  1541776121, input B =  1428688626, output OUT =             113087495
# refmod: input A = 01011011111001011010001011111001, input B = 01010101001010000000111011110010, output OUT = 0000000000000000000000000000000000000110101111011001010000000111
# UVM_INFO @ 345: reporter [MISCMP] Miscompare for exp.data: lhs = 'h6bd9407 : rhs = 'h1e91a05b91e5ad62
# UVM_INFO @ 345: reporter [MISCMP] 1 Miscompare(s) for object tr@825 vs. exp@617
# UVM_WARNING @ 345: uvm_test_top.env_h.comp [Comparator Mismatch] 
# Dadda: input A = 1246460781, input B = 1569374088, output OUT =  1956163251409642728
# Dadda: input A = 01001010010010110111101101101101, input B = 01011101100010101011111110001000, output OUT = 0001101100100101101100000001110011101010111100011110010011101000
# refmod: input A =  1246460781, input B =  1569374088, output OUT =            -322913307
# refmod: input A = 01001010010010110111101101101101, input B = 01011101100010101011111110001000, output OUT = 1111111111111111111111111111111111101100110000001011101111100101
# UVM_INFO @ 375: reporter [MISCMP] Miscompare for exp.data: lhs = 'hffffffffecc0bbe5 : rhs = 'h1b25b01ceaf1e4e8
# UVM_INFO @ 375: reporter [MISCMP] 1 Miscompare(s) for object tr@825 vs. exp@617
# UVM_WARNING @ 375: uvm_test_top.env_h.comp [Comparator Mismatch] 
# Dadda: input A = 1712994403, input B =  601358051, output OUT =  1030122975561988553
# Dadda: input A = 01100110000110100011100001100011, input B = 00100011110101111111111011100011, output OUT = 0000111001001011101110110110001101110001010101110011100111001001
# refmod: input A =  1712994403, input B =   601358051, output OUT =            1111636352
# refmod: input A = 01100110000110100011100001100011, input B = 00100011110101111111111011100011, output OUT = 0000000000000000000000000000000001000010010000100011100110000000
# UVM_INFO @ 405: reporter [MISCMP] Miscompare for exp.data: lhs = 'h42423980 : rhs = 'he4bbb63715739c9
# UVM_INFO @ 405: reporter [MISCMP] 1 Miscompare(s) for object tr@825 vs. exp@617
# UVM_WARNING @ 405: uvm_test_top.env_h.comp [Comparator Mismatch] 
# Dadda: input A = 1399840739, input B =  350842963, output OUT =   491124272598869657
# Dadda: input A = 01010011011011111101111111100011, input B = 00010100111010010111000001010011, output OUT = 0000011011010000110100101110110010000000110100111110011010011001
# refmod: input A =  1399840739, input B =   350842963, output OUT =            1048997776
# refmod: input A = 01010011011011111101111111100011, input B = 00010100111010010111000001010011, output OUT = 0000000000000000000000000000000000111110100001100110111110010000
# UVM_INFO @ 435: reporter [MISCMP] Miscompare for exp.data: lhs = 'h3e866f90 : rhs = 'h6d0d2ec80d3e699
# UVM_INFO @ 435: reporter [MISCMP] 1 Miscompare(s) for object tr@825 vs. exp@617
# UVM_WARNING @ 435: uvm_test_top.env_h.comp [Comparator Mismatch] 
# Dadda: input A =   91952929, input B = 1965175865, output OUT =   180703676786858585
# Dadda: input A = 00000101011110110001011100100001, input B = 01110101001000100011010000111001, output OUT = 0000001010000001111111010000100101100000011111001101101001011001
# refmod: input A =    91952929, input B =  1965175865, output OUT =           -1873222936
# refmod: input A = 00000101011110110001011100100001, input B = 01110101001000100011010000111001, output OUT = 1111111111111111111111111111111110010000010110001110001011101000
# UVM_INFO @ 465: reporter [MISCMP] Miscompare for exp.data: lhs = 'hffffffff9058e2e8 : rhs = 'h281fd09607cda59
# UVM_INFO @ 465: reporter [MISCMP] 1 Miscompare(s) for object tr@825 vs. exp@617
# UVM_WARNING @ 465: uvm_test_top.env_h.comp [Comparator Mismatch] 
# Dadda: input A =  925443358, input B =  460769222, output OUT =   426415816070727476
# Dadda: input A = 00110111001010010010010100011110, input B = 00011011011101101100011111000110, output OUT = 0000010111101010111011101110110011101011100000010000011100110100
# refmod: input A =   925443358, input B =   460769222, output OUT =             464674136
# refmod: input A = 00110111001010010010010100011110, input B = 00011011011101101100011111000110, output OUT = 0000000000000000000000000000000000011011101100100101110101011000
# UVM_INFO @ 495: reporter [MISCMP] Miscompare for exp.data: lhs = 'h1bb25d58 : rhs = 'h5eaeeeceb810734
# UVM_INFO @ 495: reporter [MISCMP] 1 Miscompare(s) for object tr@825 vs. exp@617
# UVM_WARNING @ 495: uvm_test_top.env_h.comp [Comparator Mismatch] 
# Dadda: input A =  876184097, input B =  614306907, output OUT =   538245942590657979
# Dadda: input A = 00110100001110011000001000100001, input B = 00100100100111011001010001011011, output OUT = 0000011101111000001110111101010101000001111010010101010110111011
# refmod: input A =   876184097, input B =   614306907, output OUT =             261877190
# refmod: input A = 00110100001110011000001000100001, input B = 00100100100111011001010001011011, output OUT = 0000000000000000000000000000000000001111100110111110110111000110
# UVM_INFO @ 525: reporter [MISCMP] Miscompare for exp.data: lhs = 'hf9bedc6 : rhs = 'h7783bd541e955bb
# UVM_INFO @ 525: reporter [MISCMP] 1 Miscompare(s) for object tr@825 vs. exp@617
# UVM_WARNING @ 525: uvm_test_top.env_h.comp [Comparator Mismatch] 
# Dadda: input A = 1568767450, input B = 1075088082, output OUT =  1686563188924530900
# Dadda: input A = 01011101100000010111110111011010, input B = 01000000000101001000101011010010, output OUT = 0001011101100111111000000100100011010111000110001100000011010100
# refmod: input A =  1568767450, input B =  1075088082, output OUT =             493679368
# refmod: input A = 01011101100000010111110111011010, input B = 01000000000101001000101011010010, output OUT = 0000000000000000000000000000000000011101011011001111001100001000
# UVM_INFO @ 555: reporter [MISCMP] Miscompare for exp.data: lhs = 'h1d6cf308 : rhs = 'h1767e048d718c0d4
# UVM_INFO @ 555: reporter [MISCMP] 1 Miscompare(s) for object tr@825 vs. exp@617
# UVM_WARNING @ 555: uvm_test_top.env_h.comp [Comparator Mismatch] 
# Dadda: input A = 1678953407, input B =  444558830, output OUT =   746393562240433810
# Dadda: input A = 01100100000100101100101110111111, input B = 00011010011111110110110111101110, output OUT = 0000101001011011101110001111110110000011111110101011111010010010
# refmod: input A =  1678953407, input B =   444558830, output OUT =            1234394577
# refmod: input A = 01100100000100101100101110111111, input B = 00011010011111110110110111101110, output OUT = 0000000000000000000000000000000001001001100100110101110111010001
# UVM_INFO @ 585: reporter [MISCMP] Miscompare for exp.data: lhs = 'h49935dd1 : rhs = 'ha5bb8fd83fabe92
# UVM_INFO @ 585: reporter [MISCMP] 1 Miscompare(s) for object tr@825 vs. exp@617
# UVM_WARNING @ 585: uvm_test_top.env_h.comp [Comparator Mismatch] 
# Dadda: input A = 1221817855, input B = 2011566019, output OUT =  2457767278525469245
# Dadda: input A = 01001000110100110111010111111111, input B = 01110111111001100000111111000011, output OUT = 0010001000011011101111100101000101101001000101101101001000111101
# refmod: input A =  1221817855, input B =  2011566019, output OUT =            -789748164
# refmod: input A = 01001000110100110111010111111111, input B = 01110111111001100000111111000011, output OUT = 1111111111111111111111111111111111010000111011010110011000111100
# UVM_INFO @ 615: reporter [MISCMP] Miscompare for exp.data: lhs = 'hffffffffd0ed663c : rhs = 'h221bbe516916d23d
# UVM_INFO @ 615: reporter [MISCMP] 1 Miscompare(s) for object tr@825 vs. exp@617
# UVM_WARNING @ 615: uvm_test_top.env_h.comp [Comparator Mismatch] 
# Dadda: input A =  483247761, input B =   42791131, output OUT =    20678718246407691
# Dadda: input A = 00011100110011011100011010010001, input B = 00000010100011001111000011011011, output OUT = 0000000001001001011101110010111101000111011111001100111000001011
# refmod: input A =   483247761, input B =    42791131, output OUT =             440456630
# refmod: input A = 00011100110011011100011010010001, input B = 00000010100011001111000011011011, output OUT = 0000000000000000000000000000000000011010010000001101010110110110
# UVM_INFO @ 645: reporter [MISCMP] Miscompare for exp.data: lhs = 'h1a40d5b6 : rhs = 'h49772f477cce0b
# UVM_INFO @ 645: reporter [MISCMP] 1 Miscompare(s) for object tr@825 vs. exp@617
# UVM_WARNING @ 645: uvm_test_top.env_h.comp [Comparator Mismatch] 
# Dadda: input A =  459354219, input B = 1329403142, output OUT =   610666942029556098
# Dadda: input A = 00011011011000010011000001101011, input B = 01001111001111010001010100000110, output OUT = 0000100001111001100001100101100100101011101111101110100110000010
# refmod: input A =   459354219, input B =  1329403142, output OUT =            -870048923
# refmod: input A = 00011011011000010011000001101011, input B = 01001111001111010001010100000110, output OUT = 1111111111111111111111111111111111001100001001000001101101100101
# UVM_INFO @ 675: reporter [MISCMP] Miscompare for exp.data: lhs = 'hffffffffcc241b65 : rhs = 'h87986592bbee982
# UVM_INFO @ 675: reporter [MISCMP] 1 Miscompare(s) for object tr@825 vs. exp@617
# UVM_WARNING @ 675: uvm_test_top.env_h.comp [Comparator Mismatch] 
# Dadda: input A = 1266089797, input B = 2073383015, output OUT =  2625089080564597955
# Dadda: input A = 01001011011101101111111101000101, input B = 01111011100101010101000001100111, output OUT = 0010010001101110001100001001110001000110110011110100010011000011
# refmod: input A =  1266089797, input B =  2073383015, output OUT =            -807293218
# refmod: input A = 01001011011101101111111101000101, input B = 01111011100101010101000001100111, output OUT = 1111111111111111111111111111111111001111111000011010111011011110
# UVM_INFO @ 705: reporter [MISCMP] Miscompare for exp.data: lhs = 'hffffffffcfe1aede : rhs = 'h246e309c46cf44c3
# UVM_INFO @ 705: reporter [MISCMP] 1 Miscompare(s) for object tr@825 vs. exp@617
# UVM_WARNING @ 705: uvm_test_top.env_h.comp [Comparator Mismatch] 
# Dadda: input A =  652409171, input B = 1668989895, output OUT =  1088864313804327045
# Dadda: input A = 00100110111000101111100101010011, input B = 01100011011110101100001111000111, output OUT = 0000111100011100011011000101001100001000111010000000100010000101
# refmod: input A =   652409171, input B =  1668989895, output OUT =           -1016580724
# refmod: input A = 00100110111000101111100101010011, input B = 01100011011110101100001111000111, output OUT = 1111111111111111111111111111111111000011011010000011010110001100
# UVM_INFO @ 735: reporter [MISCMP] Miscompare for exp.data: lhs = 'hffffffffc368358c : rhs = 'hf1c6c5308e80885
# UVM_INFO @ 735: reporter [MISCMP] 1 Miscompare(s) for object tr@825 vs. exp@617
# UVM_WARNING @ 735: uvm_test_top.env_h.comp [Comparator Mismatch] 
# Dadda: input A =  890816111, input B = 1746323356, output OUT =  1555652980540388516
# Dadda: input A = 00110101000110001100011001101111, input B = 01101000000101101100011110011100, output OUT = 0001010110010110110010100010010011000010111000110011010010100100
# refmod: input A =   890816111, input B =  1746323356, output OUT =            -855507245
# refmod: input A = 00110101000110001100011001101111, input B = 01101000000101101100011110011100, output OUT = 1111111111111111111111111111111111001101000000011111111011010011
# UVM_INFO @ 765: reporter [MISCMP] Miscompare for exp.data: lhs = 'hffffffffcd01fed3 : rhs = 'h1596ca24c2e334a4
# UVM_INFO @ 765: reporter [MISCMP] 1 Miscompare(s) for object tr@825 vs. exp@617
# UVM_WARNING @ 765: uvm_test_top.env_h.comp [Comparator Mismatch] 
# Dadda: input A = 1778436677, input B =  206073382, output OUT =   366488460702231614
# Dadda: input A = 01101010000000001100101001000101, input B = 00001100010010000110111000100110, output OUT = 0000010100010110000001110101000000110010011011111010110000111110
# refmod: input A =  1778436677, input B =   206073382, output OUT =            1572363295
# refmod: input A = 01101010000000001100101001000101, input B = 00001100010010000110111000100110, output OUT = 0000000000000000000000000000000001011101101110000101110000011111
# UVM_INFO @ 795: reporter [MISCMP] Miscompare for exp.data: lhs = 'h5db85c1f : rhs = 'h5160750326fac3e
# UVM_INFO @ 795: reporter [MISCMP] 1 Miscompare(s) for object tr@825 vs. exp@617
# UVM_WARNING @ 795: uvm_test_top.env_h.comp [Comparator Mismatch] 
# Dadda: input A =  940084422, input B =  357238882, output OUT =   335834707900896204
# Dadda: input A = 00111000000010001000110011000110, input B = 00010101010010110000100001100010, output OUT = 0000010010101001000111111110001100110011101011100001001111001100
# refmod: input A =   940084422, input B =   357238882, output OUT =             582845540
# refmod: input A = 00111000000010001000110011000110, input B = 00010101010010110000100001100010, output OUT = 0000000000000000000000000000000000100010101111011000010001100100
# UVM_INFO @ 825: reporter [MISCMP] Miscompare for exp.data: lhs = 'h22bd8464 : rhs = 'h4a91fe333ae13cc
# UVM_INFO @ 825: reporter [MISCMP] 1 Miscompare(s) for object tr@825 vs. exp@617
# UVM_WARNING @ 825: uvm_test_top.env_h.comp [Comparator Mismatch] 
# Dadda: input A = 1766121974, input B = 1385076643, output OUT =  2446214294876453282
# Dadda: input A = 01101001010001001110000111110110, input B = 01010010100011101001011110100011, output OUT = 0010000111110010101100101111000011001010100101111111100110100010
# refmod: input A =  1766121974, input B =  1385076643, output OUT =             381045331
# refmod: input A = 01101001010001001110000111110110, input B = 01010010100011101001011110100011, output OUT = 0000000000000000000000000000000000010110101101100100101001010011
# UVM_INFO @ 855: reporter [MISCMP] Miscompare for exp.data: lhs = 'h16b64a53 : rhs = 'h21f2b2f0ca97f9a2
# UVM_INFO @ 855: reporter [MISCMP] 1 Miscompare(s) for object tr@825 vs. exp@617
# UVM_WARNING @ 855: uvm_test_top.env_h.comp [Comparator Mismatch] 
# Dadda: input A = 2067343682, input B =  977174398, output OUT =  2020155317917453436
# Dadda: input A = 01111011001110010010100101000010, input B = 00111010001111100111111101111110, output OUT = 0001110000001001000010001000111011110011100101100000110001111100
# refmod: input A =  2067343682, input B =   977174398, output OUT =            1090169284
# refmod: input A = 01111011001110010010100101000010, input B = 00111010001111100111111101111110, output OUT = 0000000000000000000000000000000001000000111110101010100111000100
# UVM_INFO @ 885: reporter [MISCMP] Miscompare for exp.data: lhs = 'h40faa9c4 : rhs = 'h1c09088ef3960c7c
# UVM_INFO @ 885: reporter [MISCMP] 1 Miscompare(s) for object tr@825 vs. exp@617
# UVM_WARNING @ 885: uvm_test_top.env_h.comp [Comparator Mismatch] 
# Dadda: input A =  378808866, input B = 1032434645, output OUT =   391095397091562570
# Dadda: input A = 00010110100101000010101000100010, input B = 00111101100010011011001111010101, output OUT = 0000010101101101011100110011000100001000111011101101010001001010
# refmod: input A =   378808866, input B =  1032434645, output OUT =            -653625779
# refmod: input A = 00010110100101000010101000100010, input B = 00111101100010011011001111010101, output OUT = 1111111111111111111111111111111111011001000010100111011001001101
# UVM_INFO @ 915: reporter [MISCMP] Miscompare for exp.data: lhs = 'hffffffffd90a764d : rhs = 'h56d733108eed44a
# UVM_INFO @ 915: reporter [MISCMP] 1 Miscompare(s) for object tr@825 vs. exp@617
# UVM_WARNING @ 915: uvm_test_top.env_h.comp [Comparator Mismatch] 
# Dadda: input A = 1977803549, input B =  108385716, output OUT =   214365653765706084
# Dadda: input A = 01110101111000101110001100011101, input B = 00000110011101011101010110110100, output OUT = 0000001011111001100101000110110100100100101111111101000101100100
# refmod: input A =  1977803549, input B =   108385716, output OUT =            1869417833
# refmod: input A = 01110101111000101110001100011101, input B = 00000110011101011101010110110100, output OUT = 0000000000000000000000000000000001101111011011010000110101101001
# UVM_INFO @ 945: reporter [MISCMP] Miscompare for exp.data: lhs = 'h6f6d0d69 : rhs = 'h2f9946d24bfd164
# UVM_INFO @ 945: reporter [MISCMP] 1 Miscompare(s) for object tr@825 vs. exp@617
# UVM_WARNING @ 945: uvm_test_top.env_h.comp [Comparator Mismatch] 
# Dadda: input A =  785484068, input B = 1146585647, output OUT =   900624758315971996
# Dadda: input A = 00101110110100011000100100100100, input B = 01000100010101111000001000101111, output OUT = 0000110001111111101010010111001000101011010110000111010110011100
# refmod: input A =   785484068, input B =  1146585647, output OUT =            -361101579
# refmod: input A = 00101110110100011000100100100100, input B = 01000100010101111000001000101111, output OUT = 1111111111111111111111111111111111101010011110100000011011110101
# UVM_INFO @ 975: reporter [MISCMP] Miscompare for exp.data: lhs = 'hffffffffea7a06f5 : rhs = 'hc7fa9722b58759c
# UVM_INFO @ 975: reporter [MISCMP] 1 Miscompare(s) for object tr@825 vs. exp@617
# UVM_WARNING @ 975: uvm_test_top.env_h.comp [Comparator Mismatch] 
# Dadda: input A =  913974563, input B =  690282282, output OUT =   630900447037592766
# Dadda: input A = 00110110011110100010010100100011, input B = 00101001001001001101111100101010, output OUT = 0000100011000001011010001001110100101010010011111001010010111110
# refmod: input A =   913974563, input B =   690282282, output OUT =             223692281
# refmod: input A = 00110110011110100010010100100011, input B = 00101001001001001101111100101010, output OUT = 0000000000000000000000000000000000001101010101010100010111111001
# UVM_INFO @ 1005: reporter [MISCMP] Miscompare for exp.data: lhs = 'hd5545f9 : rhs = 'h8c1689d2a4f94be
# UVM_INFO @ 1005: reporter [MISCMP] 1 Miscompare(s) for object tr@825 vs. exp@617
# UVM_WARNING @ 1005: uvm_test_top.env_h.comp [Comparator Mismatch] 
# Dadda: input A = 1544876891, input B = 1738059493, output OUT =  2685087945918876263
# Dadda: input A = 01011100000101001111001101011011, input B = 01100111100110001010111011100101, output OUT = 0010010101000011010110010100001010110111001011011000101001100111
# refmod: input A =  1544876891, input B =  1738059493, output OUT =            -193182602
# refmod: input A = 01011100000101001111001101011011, input B = 01100111100110001010111011100101, output OUT = 1111111111111111111111111111111111110100011111000100010001110110
# UVM_INFO @ 1035: reporter [MISCMP] Miscompare for exp.data: lhs = 'hfffffffff47c4476 : rhs = 'h25435942b72d8a67
# UVM_INFO @ 1035: reporter [MISCMP] 1 Miscompare(s) for object tr@825 vs. exp@617
# UVM_WARNING @ 1035: uvm_test_top.env_h.comp [Comparator Mismatch] 
# Dadda: input A = 1961337323, input B =  556136144, output OUT =  1090770575896502512
# Dadda: input A = 01110100111001111010000111101011, input B = 00100001001001011111011011010000, output OUT = 0000111100100011001100100000111101000011110000100110000011110000
# refmod: input A =  1961337323, input B =   556136144, output OUT =            1405201179
# refmod: input A = 01110100111001111010000111101011, input B = 00100001001001011111011011010000, output OUT = 0000000000000000000000000000000001010011110000011010101100011011
# UVM_INFO @ 1065: reporter [MISCMP] Miscompare for exp.data: lhs = 'h53c1ab1b : rhs = 'hf23320f43c260f0
# UVM_INFO @ 1065: reporter [MISCMP] 1 Miscompare(s) for object tr@825 vs. exp@617
# UVM_WARNING @ 1065: uvm_test_top.env_h.comp [Comparator Mismatch] 
# Dadda: input A = 1727143128, input B =  724064169, output OUT =  1250562453719380632
# Dadda: input A = 01100110111100100001110011011000, input B = 00101011001010000101011110101001, output OUT = 0001000101011010111000111110110100000111011000100111001010011000
# refmod: input A =  1727143128, input B =   724064169, output OUT =            1003078959
# refmod: input A = 01100110111100100001110011011000, input B = 00101011001010000101011110101001, output OUT = 0000000000000000000000000000000000111011110010011100010100101111
# UVM_INFO @ 1095: reporter [MISCMP] Miscompare for exp.data: lhs = 'h3bc9c52f : rhs = 'h115ae3ed07627298
# UVM_INFO @ 1095: reporter [MISCMP] 1 Miscompare(s) for object tr@825 vs. exp@617
# UVM_WARNING @ 1095: uvm_test_top.env_h.comp [Comparator Mismatch] 
# Dadda: input A =  246654637, input B = 1595147461, output OUT =   393450517954426657
# Dadda: input A = 00001110101100111010011010101101, input B = 01011111000101000000010011000101, output OUT = 0000010101110101110100010010100101010111010111011111011100100001
# refmod: input A =   246654637, input B =  1595147461, output OUT =           -1348492824
# refmod: input A = 00001110101100111010011010101101, input B = 01011111000101000000010011000101, output OUT = 1111111111111111111111111111111110101111100111111010000111101000
# UVM_INFO @ 1125: reporter [MISCMP] Miscompare for exp.data: lhs = 'hffffffffaf9fa1e8 : rhs = 'h575d129575df721
# UVM_INFO @ 1125: reporter [MISCMP] 1 Miscompare(s) for object tr@825 vs. exp@617
# UVM_WARNING @ 1125: uvm_test_top.env_h.comp [Comparator Mismatch] 
# Dadda: input A = 1646293169, input B = 1054092443, output OUT =  1735345188405421867
# Dadda: input A = 01100010001000000111000010110001, input B = 00111110110101000010110010011011, output OUT = 0001100000010101001011110100000100101101100101101010011100101011
# refmod: input A =  1646293169, input B =  1054092443, output OUT =             592200726
